<?xml version='1.0' encoding='UTF-8'?>
<!-- Created with Inkscape (http://www.inkscape.org/) and export_objects.py -->
<svg xmlns:cc="http://creativecommons.org/ns#" xmlns:dc="http://purl.org/dc/elements/1.1/" xmlns:inkscape="http://www.inkscape.org/namespaces/inkscape" xmlns:rdf="http://www.w3.org/1999/02/22-rdf-syntax-ns#" xmlns:sodipodi="http://sodipodi.sourceforge.net/DTD/sodipodi-0.dtd" xmlns:xlink="http://www.w3.org/1999/xlink" xmlns="http://www.w3.org/2000/svg" version="1.1" id="svg1" width="16" height="16" viewBox="0 0 16 16">
<sodipodi:namedview 
    objecttolerance="10" 
    gridtolerance="10" 
    guidetolerance="10" 
    id="namedview" 
    showgrid="true" 
    inkscape:zoom="27.166187"
    inkscape:cx="7.4837792"
    inkscape:cy="8.9906751"
    inkscape:window-x="0" 
    inkscape:window-y="27"> 
    <inkscape:grid type="xygrid" id="grid"/>
  </sodipodi:namedview>
  <metadata
     id="metadata1906">
    <rdf:RDF>
      <cc:Work
         rdf:about="">
        <dc:format>image/svg+xml</dc:format>
        <dc:type
           rdf:resource="http://purl.org/dc/dcmitype/StillImage" />
        <cc:license
           rdf:resource="http://creativecommons.org/publicdomain/zero/1.0/" />
        <dc:title>LiveEffect Icons proposal</dc:title>
        <dc:date>13 Jan 2019</dc:date>
        <dc:creator>
          <cc:Agent>
            <dc:title>Ramón Miranda</dc:title>
          </cc:Agent>
        </dc:creator>
        <dc:rights>
          <cc:Agent>
            <dc:title>see the license tab</dc:title>
          </cc:Agent>
        </dc:rights>
        <dc:subject>
          <rdf:Bag>
            <rdf:li>icon ui</rdf:li>
          </rdf:Bag>
        </dc:subject>
        <dc:description>This is a contribution with Inkscape Project from
Ramon Miranda www.ramonmiranda.com (design and SVG file)
Jabiertxo (SVG stuff to integrate them in UI)</dc:description>
        <dc:publisher>
          <cc:Agent>
            <dc:title></dc:title>
          </cc:Agent>
        </dc:publisher>
        <dc:identifier></dc:identifier>
        <dc:source />
        <dc:relation />
        <dc:language>-</dc:language>
        <dc:coverage />
        <dc:contributor>
          <cc:Agent>
            <dc:title>Ramon Miranda
Jabier Arraiza</dc:title>
          </cc:Agent>
        </dc:contributor>
      </cc:Work>
      <cc:License
         rdf:about="http://creativecommons.org/publicdomain/zero/1.0/">
        <cc:permits
           rdf:resource="http://creativecommons.org/ns#Reproduction" />
        <cc:permits
           rdf:resource="http://creativecommons.org/ns#Distribution" />
        <cc:permits
           rdf:resource="http://creativecommons.org/ns#DerivativeWorks" />
      </cc:License>
    </rdf:RDF>
  </metadata>
  <g inkscape:groupmode="layer"
     id="layercompo"
     inkscape:label="embrodery-stitch">
        <path 
            id="rect22048" 
            d="M 0,0 H 16 V 16 H 0 Z" 
            style="opacity:0;fill:none" />
        <path inkscape:connector-curvature="0" d="m 8.1098363,1.2685048 -0.046875,0.060547 c 0,0 0.05547,0.042858 0.1171875,0.095703 -0.035351,-0.021164 -0.072273,-0.043288 -0.1035156,-0.058594 -0.022175,-0.010864 -0.041165,-0.018774 -0.060547,-0.023437 -0.00969,-0.00233 -0.019488,-0.00326 -0.03125,-0.00195 -0.011762,0.0013 -0.027516,0.00771 -0.037109,0.021484 -5.506e-4,7.908e-4 -0.0076,0.014612 -0.00781,0.015625 -2.134e-4,0.00101 -3.99e-4,0.011329 0,0.015625 7.98e-4,0.00859 0.00326,0.01377 0.00586,0.019531 0.0052,0.011521 0.011,0.022325 0.019531,0.033203 0.017063,0.021756 0.042181,0.046779 0.072266,0.076172 0.06017,0.058786 0.1429714,0.1313394 0.2304687,0.2089844 0.087497,0.077645 0.1781031,0.1605962 0.2539063,0.2324219 0.0239,0.022646 0.030648,0.032222 0.050781,0.052734 C 8.5060585,1.9741172 8.4353037,1.9306244 8.3500707,1.8720204 8.2368365,1.7941635 8.1193592,1.7118748 8.0278051,1.6513173 7.982028,1.6210385 7.9425166,1.5958293 7.9125707,1.5790517 c -0.014973,-0.00839 -0.027152,-0.015071 -0.039063,-0.019531 -0.00596,-0.00223 -0.012878,-0.00315 -0.021484,-0.00391 -0.00215,-1.886e-4 -0.00532,-3.14e-5 -0.00586,0 -5.404e-4,3.15e-5 -0.00933,0.00183 -0.00977,0.00195 -4.33e-4,1.211e-4 -0.011395,0.00369 -0.011719,0.00391 -3.237e-4,2.123e-4 -0.011506,0.011414 -0.011719,0.011719 -2.125e-4,3.051e-4 -0.00579,0.015213 -0.00586,0.015625 -6.45e-5,4.118e-4 -8.11e-5,0.013155 0,0.013672 8.12e-5,5.169e-4 0.00109,0.00737 0.00195,0.00977 8.673e-4,0.0024 0.00103,0.00404 0.00195,0.00586 0.00369,0.00729 0.00716,0.011989 0.011719,0.017578 0.00912,0.011179 0.021484,0.024 0.037109,0.039063 0.031251,0.030124 0.076101,0.068438 0.1308594,0.1152343 C 8.100199,1.883584 8.2498021,2.0067882 8.4008393,2.1298358 8.2728323,2.0354931 8.1409407,1.939628 8.0414769,1.8681141 7.9797291,1.8237179 7.9289523,1.7878001 7.8910863,1.7626454 c -0.018933,-0.012577 -0.034697,-0.022498 -0.046875,-0.029297 -0.00609,-0.0034 -0.011124,-0.0054 -0.017578,-0.00781 -0.00161,-6.034e-4 -0.00376,-0.00139 -0.00586,-0.00195 -0.0021,-5.641e-4 -0.00736,-0.00191 -0.00781,-0.00195 -4.498e-4,-4.1e-5 -0.013374,0.00187 -0.013672,0.00195 -1.488e-4,4.06e-5 -0.011608,0.00383 -0.011719,0.00391 -1.104e-4,7.15e-5 -0.00969,0.011616 -0.00977,0.011719 -7.16e-5,1.026e-4 -0.00778,0.013537 -0.00781,0.013672 -2.81e-5,1.348e-4 -1.49e-5,0.011552 0,0.011719 2.99e-5,3.337e-4 0.00371,0.011259 0.00391,0.011719 4e-4,9.203e-4 0.00381,0.009 0.00586,0.011719 0.0041,0.00545 0.0084,0.010294 0.013672,0.015625 0.010552,0.010662 0.026171,0.024549 0.044922,0.041016 0.037502,0.032933 0.091052,0.07746 0.15625,0.1308593 0.061698,0.050533 0.1511838,0.1215086 0.2285156,0.1835938 C 8.1431332,2.1017504 8.0512144,2.0348347 7.9848363,1.9892079 7.9102188,1.9379176 7.8482927,1.8958919 7.8012425,1.8681141 c -0.023525,-0.013889 -0.044081,-0.024359 -0.060547,-0.03125 -0.00823,-0.00345 -0.015734,-0.00637 -0.025391,-0.00781 -0.00241,-3.595e-4 -0.00483,2.63e-5 -0.00781,0 -0.00298,-2.64e-5 -0.0091,-1.379e-4 -0.00977,0 -6.622e-4,1.378e-4 -0.013187,0.00557 -0.013672,0.00586 -4.844e-4,2.856e-4 -0.011415,0.011283 -0.011719,0.011719 -3.035e-4,4.355e-4 -0.00773,0.016979 -0.00781,0.017578 -7.84e-5,5.991e-4 -1.432e-4,0.012912 0,0.013672 1.432e-4,7.6e-4 0.00287,0.00714 0.00391,0.00977 0.00103,0.00263 8.173e-4,0.00569 0.00195,0.00781 0.00454,0.00847 0.011089,0.013735 0.017578,0.021484 0.012978,0.015499 0.031125,0.034208 0.054687,0.056641 0.036509,0.034758 0.093429,0.086033 0.1523437,0.1367188 -0.055359,-0.041285 -0.1135338,-0.086593 -0.1503906,-0.1132813 -0.026496,-0.019186 -0.047304,-0.032759 -0.0625,-0.042969 -0.0076,-0.0051 -0.014079,-0.00859 -0.019531,-0.011719 -0.00273,-0.00157 -0.00553,-0.00415 -0.00977,-0.00586 -0.00106,-4.265e-4 -0.00369,6.59e-5 -0.00391,0 -2.164e-4,-6.59e-5 -0.0057,-0.00193 -0.00586,-0.00195 -1.604e-4,-2.18e-5 -0.013568,-2.27e-5 -0.013672,0 -1.039e-4,2.27e-5 -0.02339,0.015557 -0.023437,0.015625 -4.71e-5,6.75e-5 -0.00587,0.025278 -0.00586,0.025391 1.24e-5,1.127e-4 0.00188,0.011561 0.00195,0.011719 1.429e-4,3.15e-4 0.00453,0.00803 0.00586,0.00977 0.00266,0.00348 0.00361,0.00554 0.00586,0.00781 0.0045,0.00454 0.010467,0.00936 0.017578,0.015625 0.014223,0.01254 0.034342,0.029195 0.060547,0.050781 0.052409,0.043172 0.1280611,0.1034706 0.21875,0.1757813 0.1152274,0.091858 0.2760597,0.2176437 0.425792,0.335928 C 8.1824064,2.469424 8.0174775,2.3476812 7.8949925,2.2606923 7.7941338,2.1890623 7.7089965,2.1302399 7.6469457,2.0907704 c -0.031025,-0.019735 -0.056383,-0.035025 -0.076172,-0.044922 -0.00989,-0.00495 -0.017729,-0.00908 -0.027344,-0.011719 -0.0024,-6.607e-4 -0.00491,-0.00151 -0.00781,-0.00195 -0.0029,-4.397e-4 -0.010917,-3.87e-5 -0.011719,0 -8.014e-4,3.86e-5 -0.013115,0.00367 -0.013672,0.00391 -5.565e-4,2.386e-4 -0.01727,0.01323 -0.017578,0.013672 -1.538e-4,2.209e-4 -0.00578,0.011443 -0.00586,0.011719 -7.99e-5,2.755e-4 -0.00195,0.00944 -0.00195,0.00977 -6.7e-6,3.297e-4 -6.61e-5,0.00938 0,0.00977 6.61e-5,3.834e-4 0.00138,0.00405 0.00195,0.00586 0.0023,0.00725 0.00505,0.011387 0.00781,0.015625 0.00553,0.00848 0.013063,0.016233 0.021484,0.025391 0.016842,0.018315 0.040978,0.041774 0.072266,0.070312 0.062575,0.057077 0.1515965,0.134543 0.2617188,0.2265625 C 8.0703152,2.6087937 8.368885,2.8492963 8.6703832,3.0927235 8.9255217,3.2987204 9.1677451,3.4929251 9.3832738,3.6688954 9.1832771,3.5207737 8.9787302,3.3694584 8.7426488,3.1923329 8.4199436,2.9502158 8.0937073,2.7045195 7.8461644,2.522411 7.722393,2.4313568 7.6179355,2.3572047 7.5434301,2.3056141 c -0.037253,-0.025795 -0.06595,-0.045265 -0.087891,-0.058594 -0.01097,-0.00666 -0.020848,-0.011779 -0.029297,-0.015625 -0.00422,-0.00192 -0.00694,-0.00445 -0.013672,-0.00586 -0.00168,-3.529e-4 -0.00551,2.7e-5 -0.00586,0 -3.447e-4,-2.7e-5 -0.0095,-3.47e-5 -0.00977,0 -2.675e-4,3.48e-5 -0.011529,0.00381 -0.011719,0.00391 -1.897e-4,9.7e-5 -0.015514,0.011559 -0.015625,0.011719 -1.112e-4,1.598e-4 -0.00583,0.017353 -0.00586,0.017578 -2.47e-5,2.25e-4 -6.1e-5,0.013382 0,0.013672 6.11e-5,2.898e-4 0.00376,0.00746 0.00391,0.00781 1.462e-4,3.54e-4 0.00117,0.0025 0.00195,0.00391 0.00312,0.00564 0.00472,0.01 0.00781,0.013672 0.00619,0.00735 0.015354,0.013812 0.025391,0.023437 0.020073,0.019252 0.048444,0.045887 0.085937,0.078125 0.074986,0.064476 0.1835526,0.1530077 0.3144532,0.2597657 0.2618011,0.2135159 0.614214,0.4971203 0.9707031,0.7832031 0.3564891,0.2860828 0.7167298,0.5763838 0.9941406,0.8046875 0.035745,0.029418 0.055091,0.046985 0.087891,0.074219 C 9.5818909,4.1210561 9.2206784,3.8496875 8.8481175,3.5712391 8.4647828,3.2847384 8.0770167,2.994281 7.7817113,2.7802235 7.6340586,2.6731948 7.5080609,2.5860598 7.4184301,2.5263173 7.3736146,2.496446 7.3379397,2.4729165 7.3110082,2.4579579 c -0.013466,-0.00748 -0.024341,-0.013641 -0.035156,-0.017578 -0.00541,-0.00197 -0.00931,-0.0033 -0.017578,-0.00391 -0.00207,-1.518e-4 -0.00736,-3.33e-5 -0.00781,0 -4.547e-4,3.33e-5 -0.0094,0.00185 -0.00977,0.00195 -3.635e-4,1.072e-4 -0.00949,0.00568 -0.00977,0.00586 -2.716e-4,1.818e-4 -0.01154,0.00951 -0.011719,0.00977 -1.789e-4,2.569e-4 -0.00589,0.024973 -0.00586,0.025391 2.93e-5,4.171e-4 0.00172,0.013096 0.00195,0.013672 2.358e-4,5.761e-4 0.00275,0.00394 0.00391,0.00586 0.00115,0.00192 0.00277,0.00429 0.00391,0.00586 0.00453,0.00626 0.00924,0.010916 0.015625,0.017578 0.012773,0.013325 0.030692,0.031073 0.054688,0.052734 0.047991,0.043322 0.1180063,0.1034039 0.2089843,0.1796875 0.1819562,0.1525672 0.44417,0.3679813 0.7597657,0.6230469 C 8.8933713,3.8880109 9.7402738,4.5623514 10.586399,5.2353017 9.7487204,4.5829704 8.9088576,3.9303584 8.2797582,3.4423329 7.9619256,3.1957734 7.6985121,2.9913046 7.5121801,2.8485829 7.419014,2.777222 7.3440345,2.7202981 7.2934301,2.6825673 c -0.025302,-0.018865 -0.044806,-0.03324 -0.058594,-0.042969 -0.00689,-0.00486 -0.011019,-0.00686 -0.015625,-0.00977 -0.0023,-0.00145 -0.00455,-0.00425 -0.00781,-0.00586 -0.00163,-8.043e-4 -0.00754,-0.00188 -0.00781,-0.00195 -2.676e-4,-7.16e-5 -0.040953,0.013582 -0.041016,0.013672 -6.29e-5,9.01e-5 -0.00209,0.040766 -0.00195,0.041016 1.412e-4,2.493e-4 0.00276,0.00645 0.00391,0.00781 0.00229,0.00272 0.0039,0.00397 0.00586,0.00586 0.00391,0.00378 0.00928,0.00814 0.015625,0.013672 0.012692,0.011056 0.030488,0.026879 0.054687,0.046875 0.048399,0.039991 0.1201529,0.096839 0.2109375,0.1699218 0.1815692,0.1461662 0.4415772,0.354959 0.7539062,0.6035156 0.6246581,0.4971134 1.458593,1.1576496 2.2910152,1.8203126 0.832422,0.6626629 1.663896,1.3256796 2.283203,1.828125 C 12.96,7.3190322 13.072262,7.4154111 13.211399,7.5302235 13.064485,7.4204514 12.942883,7.32983 12.754367,7.1864735 12.115164,6.7003933 11.26818,6.0475672 10.422336,5.3915517 9.576492,4.7355361 8.731829,4.0775493 8.0981175,3.584911 7.7812618,3.3385919 7.5159164,3.1322436 7.3305394,2.9892079 7.2378509,2.9176901 7.1658234,2.8631234 7.1156957,2.8251454 c -0.025064,-0.018989 -0.045148,-0.033163 -0.058594,-0.042969 -0.00484,-0.00353 -0.00828,-0.00541 -0.011719,-0.00781 -0.00134,-9.337e-4 -0.00274,-0.00312 -0.00391,-0.00391 -0.00209,-0.00141 -0.00336,-0.00247 -0.00586,-0.00391 -0.00125,-7.163e-4 -0.00561,-0.00381 -0.00586,-0.00391 -2.484e-4,-9.81e-5 -0.046831,0.013609 -0.046875,0.013672 -4.4e-5,6.32e-5 0.00179,0.044698 0.00195,0.044922 1.614e-4,2.239e-4 0.00293,0.00288 0.00391,0.00391 0.00196,0.00206 0.00399,0.00416 0.00586,0.00586 8.028e-4,7.3e-4 0.003,0.00115 0.00391,0.00195 0.00333,0.00296 0.00474,0.00748 0.00977,0.011719 0.012783,0.010802 0.032161,0.024989 0.056641,0.044922 0.04896,0.039866 0.1211781,0.098571 0.2128907,0.171875 0.183425,0.1466084 0.4464134,0.3537351 0.7617187,0.6035156 0.00443,0.00351 0.01117,0.010143 0.015625,0.013672 C 7.7373554,3.4343475 7.4730564,3.230843 7.2856175,3.0907704 7.1918981,3.0207341 7.1166092,2.9670581 7.0649144,2.9306141 7.039067,2.9123922 7.019273,2.8989127 7.0043675,2.8895985 c -0.00745,-0.00466 -0.013323,-0.00873 -0.019531,-0.011719 -0.0031,-0.00149 -0.010643,-0.00364 -0.011719,-0.00391 -5.377e-4,-1.327e-4 -0.013336,-0.00198 -0.013672,-0.00195 -3.36e-4,2.82e-5 -0.029164,0.017388 -0.029297,0.017578 -1.326e-4,1.904e-4 -0.00593,0.028947 -0.00586,0.029297 7.26e-5,3.495e-4 0.00558,0.011211 0.00586,0.011719 5.522e-4,0.00101 0.00367,0.00712 0.00586,0.00977 0.00438,0.00528 0.00928,0.011389 0.015625,0.017578 0.012687,0.012379 0.03077,0.027913 0.054687,0.048828 0.047835,0.04183 0.1186855,0.1010919 0.2089844,0.1757813 C 7.3959028,3.331946 7.6549527,3.5426148 7.9672582,3.7938954 8.4760996,4.2033085 9.1632244,4.7508121 9.8383519,5.288036 9.1582555,4.761027 8.4654614,4.2253613 7.9477269,3.8310048 7.6295026,3.5886144 7.3629435,3.3867821 7.1742894,3.2489735 7.0799624,3.1800692 7.0063105,3.128044 6.9535863,3.0927235 c -0.026362,-0.01766 -0.048525,-0.032126 -0.064453,-0.041016 -0.00796,-0.00444 -0.013898,-0.00698 -0.021484,-0.00977 -0.0019,-6.954e-4 -0.00351,-0.00135 -0.00586,-0.00195 -0.00235,-6.07e-4 -0.00722,-0.00191 -0.00781,-0.00195 -5.973e-4,-4.55e-5 -0.015229,0.00184 -0.015625,0.00195 -3.964e-4,1.159e-4 -0.02129,0.015347 -0.021484,0.015625 -1.94e-4,2.786e-4 -0.00782,0.023 -0.00781,0.023438 1.16e-5,4.371e-4 0.00369,0.013077 0.00391,0.013672 2.157e-4,5.946e-4 8.183e-4,0.00577 0.00195,0.00781 0.00113,0.00204 0.00278,0.00226 0.00391,0.00391 0.0045,0.00658 0.00933,0.012762 0.015625,0.019531 0.012583,0.013538 0.031092,0.031057 0.054687,0.052734 0.047191,0.043355 0.1174286,0.1037474 0.2070312,0.1796875 0.1792053,0.1518802 0.4368669,0.3638454 0.7480469,0.6171875 0.62236,0.5066842 1.4563431,1.1759381 2.2910157,1.84375 0.284143,0.2273402 0.505276,0.4044104 0.78125,0.625 C 10.64258,6.2287719 10.422861,6.0586305 10.141086,5.8388173 9.3021481,5.1843595 8.4633198,4.5304429 7.8324925,4.0419423 7.5170789,3.797692 7.2523525,3.5947596 7.0668675,3.4540517 6.9741251,3.3836977 6.9008576,3.3288412 6.8500707,3.2919423 c -0.025393,-0.01845 -0.044326,-0.033484 -0.058594,-0.042969 -0.00713,-0.00474 -0.01216,-0.00678 -0.017578,-0.00977 -0.00271,-0.00149 -0.00507,-0.00418 -0.00977,-0.00586 -0.00235,-8.373e-4 -0.011417,-0.00193 -0.011719,-0.00195 -3.014e-4,-1.92e-5 -0.035057,0.015483 -0.035156,0.015625 -9.9e-5,1.421e-4 -0.00401,0.034855 -0.00391,0.035156 1.048e-4,3.01e-4 0.00258,0.00779 0.00391,0.00977 0.00264,0.00395 0.00572,0.00553 0.00781,0.00781 0.00418,0.00456 0.0093,0.00976 0.015625,0.015625 0.012647,0.011735 0.030734,0.028366 0.054687,0.048828 0.047908,0.040924 0.1188273,0.097997 0.2089843,0.171875 0.1803141,0.1477557 0.4389762,0.3575791 0.75,0.6074219 0.6220552,0.4996861 1.4523404,1.1627185 2.283211,1.8261725 0.662251,0.528811 1.262839,1.0106582 1.818359,1.4570312 C 11.293651,6.9904904 10.6861,6.5181363 10.019993,5.9970204 9.1837781,5.3428251 8.347948,4.6872093 7.7211644,4.1962391 7.4077726,3.9507541 7.1465666,3.7471623 6.9633519,3.6044423 6.8717446,3.5330823 6.7998797,3.4764137 6.7504613,3.4384267 c -0.024709,-0.018994 -0.043517,-0.033155 -0.056641,-0.042969 -0.00656,-0.00491 -0.011745,-0.00898 -0.015625,-0.011719 -0.00194,-0.00137 -0.00385,-0.00264 -0.00586,-0.00391 -0.00101,-6.334e-4 -0.00367,-0.00184 -0.00391,-0.00195 -2.343e-4,-1.147e-4 -0.046843,0.011673 -0.046875,0.011719 -3.18e-5,4.57e-5 0.00178,0.046669 0.00195,0.046875 1.715e-4,2.056e-4 0.00111,0.00308 0.00195,0.00391 0.00169,0.00165 0.00407,0.00233 0.00586,0.00391 2.955e-4,2.595e-4 0.00164,-2.72e-4 0.00195,0 0,0 0.00195,0.00195 0.00195,0.00195 0.00319,0.00275 0.00493,0.00574 0.00977,0.00977 0.012655,0.010535 0.032344,0.027184 0.056641,0.046875 0.048593,0.039382 0.1200198,0.095233 0.2109375,0.1679687 0.1818352,0.145472 0.4417505,0.3530788 0.7539062,0.6015625 0.6243114,0.4969676 1.4558927,1.1605494 2.2871094,1.8242188 0.8312162,0.6636693 1.6625982,1.3270784 2.2812492,1.8300781 0.13996,0.1137957 0.220035,0.1820573 0.335937,0.2773438 C 12.451774,8.113813 12.367413,8.0514929 12.22507,7.9423329 11.594403,7.4586842 10.759285,6.8073498 9.9242894,6.1552235 9.0892934,5.5030973 8.2548965,4.8501122 7.6293675,4.3603017 7.3166031,4.1153964 7.0563823,3.9108559 6.8735082,3.7685048 6.7820711,3.6973292 6.7099851,3.6423035 6.6606175,3.6044423 c -0.024684,-0.018931 -0.043484,-0.033188 -0.056641,-0.042969 -0.00658,-0.00489 -0.011665,-0.00896 -0.015625,-0.011719 -0.00198,-0.00138 -0.00369,-0.00258 -0.00586,-0.00391 -0.00109,-6.64e-4 -0.00562,-0.00184 -0.00586,-0.00195 -2.377e-4,-1.088e-4 -0.046839,0.011667 -0.046875,0.011719 -3.58e-5,5.14e-5 0.00179,0.044712 0.00195,0.044922 1.659e-4,2.101e-4 0.00302,0.00497 0.00391,0.00586 0.00178,0.00179 0.0021,0.0023 0.00391,0.00391 0.00361,0.00322 0.00935,0.00645 0.015625,0.011719 0.012554,0.010536 0.030612,0.027277 0.054687,0.046875 0.048152,0.039196 0.1188592,0.095688 0.2089844,0.1679687 0.1802481,0.1445569 0.43848,0.3509296 0.7480446,0.5976524 C 8.1859968,4.9279661 9.0115552,5.5848071 9.8363988,6.2431141 10.647452,6.8904157 11.451573,7.5315068 12.062961,8.0263173 11.438197,7.5440191 10.621838,6.9087094 9.8012425,6.2665517 8.968335,5.6147588 8.136774,4.9623351 7.5121801,4.4735829 7.1998831,4.2292068 6.9391555,4.0255061 6.7563207,3.8837391 6.6649033,3.8128557 6.5929375,3.7572732 6.5434301,3.7196767 c -0.024754,-0.018798 -0.043295,-0.031307 -0.056641,-0.041016 -0.00496,-0.00361 -0.010139,-0.00537 -0.013672,-0.00781 -0.00122,-8.406e-4 -0.00282,-0.00318 -0.00391,-0.00391 -0.00212,-0.00141 -0.00315,-0.00241 -0.00586,-0.00391 -0.00135,-7.487e-4 -0.00561,-0.00382 -0.00586,-0.00391 -2.502e-4,-9e-5 -0.044873,0.013602 -0.044922,0.013672 -4.89e-5,7.01e-5 -1.537e-4,0.042739 0,0.042969 1.537e-4,2.296e-4 0.00288,0.00474 0.00391,0.00586 0.00205,0.00224 0.00398,0.00411 0.00586,0.00586 8.045e-4,7.494e-4 0.003,0.00113 0.00391,0.00195 0.00332,0.003 0.00481,0.00747 0.00977,0.011719 0.012607,0.010819 0.032534,0.02507 0.056641,0.044922 0.048213,0.039703 0.1186493,0.097024 0.2089844,0.1699219 0.18067,0.1457956 0.4394847,0.353153 0.75,0.6015625 0.6210306,0.496819 1.4499864,1.1576269 2.2773437,1.8203125 0.8273498,0.6626957 1.6517068,1.3279926 2.2675708,1.8300883 0.133953,0.1092086 0.210364,0.1734268 0.322265,0.265625 -0.114634,-0.087084 -0.194146,-0.1456437 -0.330078,-0.25 C 11.360886,7.741572 10.527474,7.0935838 9.6957738,6.444286 8.8640728,5.7949882 8.0347927,5.1452999 7.4106175,4.6591298 7.09853,4.4160447 6.8379538,4.2136349 6.6547582,4.0731923 6.5631604,4.0029709 6.4898795,3.9480681 6.4399144,3.9110829 c -0.024983,-0.018493 -0.042796,-0.033438 -0.056641,-0.042969 -0.00692,-0.00477 -0.012597,-0.00877 -0.017578,-0.011719 -0.00249,-0.00147 -0.00574,-0.00221 -0.00977,-0.00391 -0.00201,-8.488e-4 -0.00948,-0.00191 -0.00977,-0.00195 -2.816e-4,-4.39e-5 -0.037028,0.015509 -0.037109,0.015625 -8.11e-5,1.163e-4 -0.00403,0.036835 -0.00391,0.037109 1.197e-4,2.74e-4 0.00461,0.00612 0.00586,0.00781 0.0025,0.00338 0.00385,0.00573 0.00586,0.00781 0.00402,0.00417 0.00938,0.00801 0.015625,0.013672 0.012484,0.011321 0.029032,0.026808 0.052734,0.046875 0.047405,0.040133 0.1179606,0.099011 0.2070313,0.171875 0.1781413,0.1457279 0.4333528,0.3525376 0.7402343,0.5996094 0.6137632,0.4941434 1.433041,1.1493212 2.2519532,1.8066406 0.8189128,0.6573194 1.6376858,1.3154466 2.2480468,1.8125 0.06407,0.052174 0.09505,0.078514 0.154297,0.1269531 -0.06245,-0.047955 -0.09659,-0.072983 -0.164062,-0.125 C 11.197323,7.8898767 10.366916,7.2429835 9.5375707,6.5946767 8.7082247,5.9463698 7.8793572,5.2980307 7.2563207,4.8134267 6.9448024,4.5711246 6.6855759,4.3690764 6.5024144,4.2294423 6.4108337,4.1596252 6.3377312,4.1059081 6.2875707,4.069286 6.2624907,4.050975 6.2430877,4.037691 6.2289767,4.02827 6.2219167,4.02356 6.2167917,4.01953 6.2113987,4.016551 c -0.0027,-0.00149 -0.00505,-0.00418 -0.00977,-0.00586 -0.00236,-8.407e-4 -0.01142,-0.00193 -0.011719,-0.00195 -2.987e-4,-1.82e-5 -0.033104,0.017436 -0.033203,0.017578 -9.89e-5,1.419e-4 -0.00596,0.032904 -0.00586,0.033203 1.01e-4,2.987e-4 0.00455,0.00777 0.00586,0.00977 0.00263,0.00399 0.00379,0.00554 0.00586,0.00781 0.00413,0.00455 0.00942,0.00982 0.015625,0.015625 0.01241,0.01161 0.029256,0.026676 0.052734,0.046875 0.046957,0.040398 0.1167142,0.098975 0.2050781,0.171875 0.1767277,0.1457999 0.4295915,0.3530175 0.734375,0.5996094 0.6095669,0.4931837 1.4248666,1.1470039 2.2382812,1.8027344 0.813415,0.6557304 1.625128,1.3117738 2.230469,1.8085937 0.183936,0.1509612 0.303478,0.2502896 0.443359,0.3671875 C 11.935041,8.7785329 11.807379,8.6851334 11.615695,8.538036 10.990926,8.05859 10.163483,7.4130501 9.3363988,6.7665517 8.509315,6.1200532 7.6836935,5.4732276 7.0629613,4.9892079 6.7525952,4.747198 6.4932941,4.5449271 6.3110082,4.4052235 6.2198652,4.3353718 6.1479152,4.2818021 6.0981175,4.2450673 c -0.024899,-0.018367 -0.044709,-0.031553 -0.058594,-0.041016 -0.00694,-0.00473 -0.012451,-0.00876 -0.017578,-0.011719 -0.00256,-0.00148 -0.00546,-0.0022 -0.00977,-0.00391 -0.00215,-8.525e-4 -0.00948,-0.00387 -0.00977,-0.00391 -2.87e-4,-3.36e-5 -0.037022,0.015499 -0.037109,0.015625 -8.78e-5,1.261e-4 -0.00402,0.036825 -0.00391,0.037109 1.13e-4,2.84e-4 0.00458,0.00601 0.00586,0.00781 0.00256,0.00361 0.00383,0.00565 0.00586,0.00781 0.00406,0.00432 0.00939,0.00989 0.015625,0.015625 0.012474,0.011467 0.031033,0.026686 0.054688,0.046875 0.047308,0.040379 0.1161388,0.098724 0.2050781,0.171875 0.1778785,0.1463016 0.4336909,0.353724 0.7402343,0.6015625 0.613087,0.495677 1.4320568,1.1531341 2.25,1.8125 0.8179538,0.659379 1.6331408,1.321107 2.2421978,1.8203256 0.137178,0.1124391 0.216371,0.1792001 0.330078,0.2734375 C 11.693979,8.9060195 11.611031,8.8448355 11.471164,8.7372548 10.848679,8.2584593 10.023168,7.6153628 9.1977269,6.9716298 8.3722855,6.3278968 7.5459855,5.683035 6.9242894,5.2040517 6.6134414,4.96456 6.3542803,4.7664973 6.1703832,4.6298329 6.0784346,4.5615007 6.0047703,4.5088158 5.9535863,4.4735829 c -0.025592,-0.017616 -0.045279,-0.030118 -0.060547,-0.039063 -0.00763,-0.00447 -0.012466,-0.00884 -0.019531,-0.011719 -0.00177,-7.201e-4 -0.00368,-0.00129 -0.00586,-0.00195 -0.00218,-6.658e-4 -0.0092,-0.00188 -0.00977,-0.00195 -5.652e-4,-7.42e-5 -0.013303,0.00187 -0.013672,0.00195 -3.688e-4,8.5e-5 -0.023267,0.01538 -0.023437,0.015625 -1.708e-4,2.453e-4 -0.00784,0.024989 -0.00781,0.025391 2.93e-5,4.016e-4 0.00368,0.011162 0.00391,0.011719 4.557e-4,0.00111 0.00366,0.00866 0.00586,0.011719 0.0044,0.00612 0.00947,0.013043 0.015625,0.019531 0.012307,0.012976 0.029663,0.029686 0.052734,0.050781 0.046143,0.042192 0.1157033,0.1014172 0.203125,0.1757813 0.1748435,0.1487282 0.42544,0.3565326 0.7285156,0.6054687 0.6061512,0.4978724 1.417383,1.1559057 2.2285156,1.8144532 0.8111327,0.6585475 1.6222475,1.3184352 2.2265625,1.8164062 0.174567,0.1438481 0.284799,0.2364727 0.419922,0.3496094 C 11.557009,9.2108327 11.44174,9.1253893 11.26218,8.9872548 10.641996,8.5101515 9.818539,7.8675031 8.9965551,7.225536 8.1745711,6.5835689 7.3537883,5.9416674 6.7348363,5.4638173 6.4253603,5.2248922 6.1659358,5.0279396 5.9828832,4.8915517 5.8913569,4.8233577 5.8189715,4.7704831 5.7680394,4.7353017 5.7425734,4.7177109 5.7226711,4.7032266 5.7074925,4.694286 c -0.00759,-0.00447 -0.014474,-0.00688 -0.021484,-0.00977 -0.00175,-7.219e-4 -0.0037,-0.00128 -0.00586,-0.00195 -0.00216,-6.709e-4 -0.00725,-0.00188 -0.00781,-0.00195 -5.611e-4,-7.66e-5 -0.013306,-8.19e-5 -0.013672,0 -3.655e-4,8.2e-5 -0.023269,0.015383 -0.023437,0.015625 -1.685e-4,2.42e-4 -0.00784,0.024991 -0.00781,0.025391 3.23e-5,3.991e-4 0.00367,0.013117 0.00391,0.013672 4.63e-4,0.00111 0.00366,0.00868 0.00586,0.011719 0.0044,0.00608 0.00945,0.011088 0.015625,0.017578 0.012349,0.012981 0.029567,0.029611 0.052734,0.050781 0.046335,0.042341 0.1153523,0.1030364 0.203125,0.1777343 0.1755455,0.1493959 0.428123,0.359287 0.7324219,0.609375 C 7.2496842,6.1026652 8.0644078,6.763767 8.8793675,7.4247548 9.6727746,8.0682619 10.456034,8.7010236 11.059055,9.194286 10.450374,8.7208527 9.6684873,8.1089927 8.8754613,7.4872548 8.057389,6.8458804 7.2385272,6.2058059 6.6215551,5.7294423 6.313069,5.4912605 6.0543762,5.2928206 5.8715551,5.1571767 5.7801445,5.0893547 5.7077996,5.0377428 5.6567113,5.0028798 5.6311672,4.9854483 5.611598,4.9726479 5.5961644,4.9638173 c -0.00772,-0.00442 -0.014126,-0.0089 -0.021484,-0.011719 -0.00184,-7.049e-4 -0.00357,-0.00132 -0.00586,-0.00195 -0.00229,-6.311e-4 -0.00723,5.59e-5 -0.00781,0 -5.788e-4,-5.59e-5 -0.015241,-1.026e-4 -0.015625,0 -3.842e-4,1.026e-4 -0.021296,0.015363 -0.021484,0.015625 -1.881e-4,2.624e-4 -0.00783,0.023017 -0.00781,0.023437 1.33e-5,4.201e-4 0.00369,0.013095 0.00391,0.013672 2.132e-4,5.766e-4 8.333e-4,0.00582 0.00195,0.00781 0.00112,0.00199 0.0028,0.00425 0.00391,0.00586 0.00441,0.00643 0.00946,0.010922 0.015625,0.017578 0.012323,0.013313 0.029613,0.031295 0.052734,0.052734 0.046242,0.042878 0.1153177,0.1023819 0.203125,0.1777344 C 5.9729599,5.4153039 6.224731,5.6257679 6.5297673,5.87788 7.1398398,6.3821042 7.958495,7.0491068 8.7778142,7.7177237 9.5971333,8.3863407 10.41764,9.057089 11.033673,9.5673331 11.212492,9.7154437 11.326091,9.8134301 11.465314,9.9306143 11.331344,9.8275835 11.229281,9.7493057 11.061008,9.6181141 10.429093,9.1254508 9.5823124,8.456725 8.7250707,7.7841298 7.8678276,7.1115335 6.9999574,6.4360905 6.3403051,5.928661 6.0104789,5.6749463 5.7320585,5.4627685 5.5336644,5.3153798 5.4344674,5.2416854 5.3557573,5.1846966 5.2992894,5.1454579 5.2710555,5.1258386 5.247944,5.1109459 5.2309301,5.100536 c -0.00851,-0.0052 -0.014742,-0.010413 -0.021484,-0.013672 -0.00337,-0.00163 -0.00734,-0.00253 -0.011719,-0.00391 -0.00219,-6.897e-4 -0.00724,-0.00187 -0.00781,-0.00195 -5.691e-4,-7.88e-5 -0.015264,-8.82e-5 -0.015625,0 -1.805e-4,4.41e-5 -0.013546,0.00577 -0.013672,0.00586 -1.258e-4,8.66e-5 -0.011647,0.013543 -0.011719,0.013672 -7.13e-5,1.288e-4 -0.00389,0.015454 -0.00391,0.015625 -1.7e-5,1.71e-4 -3.7e-5,0.00955 0,0.00977 3.71e-5,2.128e-4 0.00186,0.00756 0.00195,0.00781 9.09e-5,2.547e-4 0.00131,0.00258 0.00195,0.00391 0.00129,0.00265 0.00275,0.00606 0.00391,0.00781 0.00464,0.007 0.00957,0.01122 0.015625,0.017578 0.0121,0.012716 0.028983,0.029362 0.052734,0.050781 0.047507,0.042835 0.1184588,0.103928 0.2109418,0.1816379 0.184966,0.1554199 0.4532737,0.3748823 0.7773438,0.6386719 C 6.3400792,6.140464 6.5431252,6.3038172 6.6899144,6.4228017 6.5132626,6.2847476 6.2799573,6.0989628 6.1235082,5.9774891 5.7840506,5.7139201 5.4983827,5.4958133 5.2953832,5.3427235 5.1938834,5.2661786 5.1122067,5.2057889 5.0551488,5.1649891 c -0.028529,-0.0204 -0.051667,-0.036086 -0.068359,-0.046875 -0.00835,-0.00539 -0.013279,-0.010327 -0.019531,-0.013672 -0.00313,-0.00167 -0.00771,-0.00239 -0.011719,-0.00391 -0.002,-7.596e-4 -0.00731,-0.00185 -0.00781,-0.00195 -2.529e-4,-5.09e-5 -0.00566,-0.00195 -0.00586,-0.00195 -1.99e-4,-7.8e-6 -0.011574,0.00192 -0.011719,0.00195 -1.45e-4,3.54e-5 -0.015537,0.00773 -0.015625,0.00781 -8.81e-5,7.97e-5 -0.011687,0.019407 -0.011719,0.019531 -3.15e-5,1.238e-4 -2.5e-5,0.015457 0,0.015625 2.49e-5,1.677e-4 0.00187,0.0076 0.00195,0.00781 1.623e-4,4.231e-4 0.00263,0.00779 0.00391,0.00977 0.00128,0.00198 0.00277,0.00246 0.00391,0.00391 0.00455,0.00577 0.00919,0.01127 0.015625,0.017578 0.01287,0.012617 0.031378,0.028685 0.056641,0.050781 0.050525,0.044193 0.1252745,0.1086598 0.2226562,0.1894531 0.1947636,0.1615868 0.4772235,0.3907472 0.8164063,0.6660156 0.6783656,0.550537 1.5867088,1.2834241 2.4882813,2.0175782 0.9015713,0.734153 1.7954924,1.4706424 2.4648434,2.029297 0.184233,0.153765 0.299809,0.251757 0.445313,0.375 -0.140333,-0.109224 -0.245905,-0.189338 -0.419922,-0.326172 -0.685078,-0.5386963 -1.6026108,-1.2668672 -2.5332032,-2 C 7.5386179,7.4494336 6.5947764,6.7116546 5.8774144,6.1591298 5.5187334,5.8828674 5.2165454,5.653489 5.0004613,5.4931141 4.8924192,5.4129267 4.8062346,5.3502059 4.7446019,5.3075673 c -0.030816,-0.021319 -0.055625,-0.03757 -0.074219,-0.048828 -0.0093,-0.00563 -0.016138,-0.010217 -0.023437,-0.013672 -0.00365,-0.00173 -0.00713,-0.00447 -0.011719,-0.00586 -0.0023,-6.96e-4 -0.00717,-0.00187 -0.00781,-0.00195 -6.387e-4,-8.11e-5 -0.015212,0.00185 -0.015625,0.00195 -2.063e-4,5.04e-5 -0.013526,0.00576 -0.013672,0.00586 -1.463e-4,9.7e-5 -0.011632,0.011575 -0.011719,0.011719 -8.65e-5,1.434e-4 -0.00388,0.013482 -0.00391,0.013672 -2.69e-5,1.896e-4 -3.23e-5,0.011483 0,0.011719 3.24e-5,2.356e-4 -9.13e-5,0.00753 0,0.00781 9.14e-5,2.816e-4 0.0013,0.00249 0.00195,0.00391 0.0013,0.00284 0.0027,0.00592 0.00391,0.00781 0.00484,0.00758 0.011049,0.012564 0.017578,0.019531 0.013058,0.013934 0.030748,0.033101 0.056641,0.056641 0.051786,0.047079 0.1312942,0.113773 0.2324218,0.1992187 0.2022553,0.1708915 0.4949188,0.4127429 0.8496094,0.703125 0.7093813,0.5807643 1.6619757,1.3534747 2.6074219,2.1269532 0.9454449,0.7734774 1.883706,1.5484164 2.585937,2.1367188 0.214981,0.180102 0.355469,0.299666 0.519531,0.439453 -0.161904,-0.126337 -0.293806,-0.2261 -0.501953,-0.390625 C 10.232378,10.021116 9.2636979,9.2464532 8.2836644,8.4677235 7.3036291,7.6889926 6.3120591,6.905967 5.5629613,6.3173329 5.1884124,6.0230158 4.8742648,5.7761668 4.6528051,5.6044423 4.5420752,5.51858 4.4537151,5.4511566 4.3930394,5.4052235 c -0.030338,-0.022966 -0.053693,-0.038769 -0.070312,-0.050781 -0.00831,-0.00601 -0.014297,-0.012164 -0.019531,-0.015625 -0.00262,-0.00173 -0.00504,-0.00236 -0.00781,-0.00391 -0.00138,-7.735e-4 -0.00548,-0.0018 -0.00586,-0.00195 -1.919e-4,-7.88e-5 -0.00573,-0.00192 -0.00586,-0.00195 -1.316e-4,-3.09e-5 -0.017507,-1.74e-5 -0.017578,0 -7.1e-5,1.73e-5 -0.029287,0.031184 -0.029297,0.03125 -9.8e-6,6.54e-5 0.00386,0.021371 0.00391,0.021484 5.11e-5,1.134e-4 0.00184,0.0057 0.00195,0.00586 1.118e-4,1.611e-4 0.00325,0.00116 0.00391,0.00195 0.00262,0.00318 0.00373,0.00576 0.00586,0.00781 0.00426,0.0041 0.010314,0.00931 0.017578,0.015625 0.014529,0.012639 0.036083,0.029229 0.064453,0.052734 0.056739,0.047012 0.1406923,0.1161693 0.2480468,0.203125 0.2147092,0.1739114 0.5227754,0.4216232 0.8925782,0.71875 0.7182649,0.5771154 1.67445,1.3454678 2.6230401,2.1132843 C 7.1070926,7.7132284 6.1029475,6.9190899 5.3422582,6.3251454 4.9570909,6.0244076 4.6344918,5.7754252 4.4047582,5.600536 4.2898914,5.5130914 4.1973938,5.4440387 4.1332738,5.397411 4.1012138,5.374097 4.0754818,5.356927 4.0571018,5.344677 4.0479118,5.338557 4.0421228,5.332732 4.0356178,5.329052 c -0.00325,-0.00184 -0.0078,-0.00226 -0.011719,-0.00391 -0.00196,-8.208e-4 -0.00533,-0.00378 -0.00586,-0.00391 -2.639e-4,-6.4e-5 -0.00761,1.49e-5 -0.00781,0 -2.025e-4,-1.48e-5 -0.011578,-3.44e-5 -0.011719,0 -1.409e-4,3.45e-5 -0.019455,0.011634 -0.019531,0.011719 -7.65e-5,8.48e-5 -0.00975,0.02135 -0.00977,0.021484 -1.25e-5,1.349e-4 0.0019,0.01544 0.00195,0.015625 5.14e-5,1.848e-4 0.00184,0.00562 0.00195,0.00586 2.3e-4,4.691e-4 0.00263,0.00605 0.00391,0.00781 0.00128,0.00176 0.00271,0.0025 0.00391,0.00391 0.00477,0.00561 0.010261,0.01257 0.017578,0.019531 0.014633,0.013922 0.035578,0.03169 0.064453,0.056641 0.057751,0.049901 0.1450233,0.1232576 0.2558594,0.2148437 0.2216722,0.1831723 0.5409878,0.4435567 0.9257812,0.7558594 0.7695869,0.6246054 1.7989244,1.4566749 2.8183594,2.2890625 1.0194336,0.8323863 2.0281642,1.6649804 2.7832032,2.2968754 0.198836,0.166406 0.321476,0.271481 0.480469,0.40625 C 11.173111,11.305662 11.060076,11.219178 10.871555,11.069286 10.101173,10.45676 9.0701153,9.6283812 8.0238988,8.7958485 6.9776809,7.9633148 5.9167648,7.1254059 5.1137425,6.4970204 4.7122314,6.1828276 4.3761774,5.9221858 4.1371801,5.7392079 4.0176814,5.647719 3.9223155,5.5751449 3.8559301,5.5263173 c -0.033193,-0.024414 -0.059334,-0.041888 -0.078125,-0.054687 -0.0094,-0.0064 -0.017003,-0.011835 -0.023438,-0.015625 -0.00322,-0.00189 -0.00602,-0.00417 -0.00977,-0.00586 -0.00187,-8.433e-4 -0.0073,-0.00181 -0.00781,-0.00195 -2.575e-4,-7.15e-5 -0.00567,-0.00193 -0.00586,-0.00195 -1.934e-4,-2e-5 -0.013543,0.00192 -0.013672,0.00195 -1.289e-4,3.14e-5 -0.021422,0.013588 -0.021484,0.013672 -6.24e-5,8.36e-5 -0.00782,0.023302 -0.00781,0.023438 3.8e-6,1.355e-4 0.00188,0.013485 0.00195,0.013672 6.98e-5,1.873e-4 0.00377,0.00562 0.00391,0.00586 2.708e-4,4.775e-4 0.00266,0.00426 0.00391,0.00586 0.00125,0.0016 0.00271,0.00257 0.00391,0.00391 0.00479,0.00536 0.00996,0.010479 0.017578,0.017578 0.015245,0.014199 0.038299,0.034815 0.068359,0.060547 0.06012,0.051463 0.1486797,0.1260847 0.2636718,0.2207032 0.2299843,0.1892368 0.5625644,0.458772 0.9609376,0.78125 C 5.3058063,6.8323633 5.7340303,7.1790372 6.0863988,7.4638173 5.71,7.1667376 5.2609741,6.8076764 4.9457738,6.5614735 4.533859,6.2397269 4.1881824,5.9710555 3.9418675,5.7841298 3.8187101,5.6906669 3.7199147,5.6171039 3.6508519,5.5673329 c -0.034531,-0.024885 -0.062062,-0.043591 -0.082031,-0.056641 -0.00998,-0.00652 -0.018241,-0.011735 -0.025391,-0.015625 -0.00357,-0.00195 -0.00551,-0.00225 -0.00977,-0.00391 -0.00213,-8.294e-4 -0.00721,-0.00378 -0.00781,-0.00391 -3.015e-4,-6.38e-5 -0.00758,1.12e-5 -0.00781,0 -2.36e-4,-1.12e-5 -0.011548,-4.16e-5 -0.011719,0 -1.703e-4,4.16e-5 -0.017476,0.00967 -0.017578,0.00977 -1.016e-4,9.53e-5 -0.00973,0.019382 -0.00977,0.019531 -3.32e-5,1.487e-4 -3.48e-5,0.015423 0,0.015625 3.48e-5,2.02e-4 0.00185,0.00756 0.00195,0.00781 2.052e-4,5.103e-4 0.00256,0.00772 0.00391,0.00977 0.00135,0.00205 0.00265,0.00233 0.00391,0.00391 0.00503,0.00631 0.0099,0.012022 0.017578,0.019531 0.015354,0.015019 0.039817,0.035789 0.070312,0.0625 0.06099,0.053421 0.1519526,0.1306713 0.2695312,0.2285156 0.2351572,0.1956886 0.5753363,0.4753501 0.984375,0.8085938 0.8180776,0.6664872 1.9123617,1.5529351 2.9960938,2.4394531 1.0837312,0.8865171 2.1568636,1.7731826 2.9589841,2.4433596 0.04443,0.03712 0.0647,0.05409 0.107422,0.08984 -0.0337,-0.02701 -0.04926,-0.03856 -0.08398,-0.06641 C 9.9905673,10.922589 8.8938635,10.039795 7.7797582,9.1513173 6.6656521,8.2628391 5.5334024,7.3692721 4.6742894,6.7001454 4.2447329,6.3655821 3.8830905,6.0878858 3.6254613,5.8935048 3.4966467,5.7963143 3.3953689,5.7186465 3.3227269,5.6669423 c -0.036321,-0.025852 -0.066648,-0.045056 -0.087891,-0.058594 -0.010621,-0.00677 -0.017651,-0.01161 -0.025391,-0.015625 -0.00387,-0.00201 -0.00909,-0.00422 -0.013672,-0.00586 -0.00229,-8.173e-4 -0.00713,-0.00183 -0.00781,-0.00195 -3.389e-4,-6.04e-5 -0.00559,5.6e-6 -0.00586,0 -2.708e-4,-5.6e-6 -0.011516,-4.94e-5 -0.011719,0 -2.025e-4,4.95e-5 -0.015494,0.00771 -0.015625,0.00781 -1.309e-4,1.055e-4 -0.011659,0.017417 -0.011719,0.017578 -5.95e-5,1.611e-4 -0.00196,0.015408 -0.00195,0.015625 1.15e-5,2.167e-4 0.00187,0.00949 0.00195,0.00977 1.645e-4,5.441e-4 0.00252,0.00738 0.00391,0.00977 0.00139,0.00238 0.0026,0.00409 0.00391,0.00586 0.00522,0.00707 0.011668,0.013536 0.019531,0.021484 0.015726,0.015898 0.038871,0.036483 0.070312,0.064453 0.062884,0.05594 0.15742,0.136073 0.2792968,0.2382812 0.2437538,0.2044166 0.5963844,0.4959571 1.0214844,0.84375 0.8502,0.6955859 1.9882163,1.6200262 3.1152344,2.5449219 1.1270172,0.9248946 2.2442164,1.8493696 3.0781245,2.5488276 0.138405,0.11609 0.212339,0.180552 0.333984,0.283203 -0.116459,-0.0933 -0.18522,-0.14654 -0.316406,-0.251953 C 9.8986183,11.25823 8.7531125,10.33264 7.5903051,9.4032704 6.4274967,8.4739008 5.2467541,7.5411234 4.3500707,6.8407704 3.901729,6.4905939 3.5248446,6.1986244 3.2563207,5.9950673 3.1220587,5.8932887 3.0153709,5.812907 2.9399144,5.7587391 c -0.037728,-0.027084 -0.067971,-0.04834 -0.089844,-0.0625 -0.010936,-0.00708 -0.019543,-0.011461 -0.027344,-0.015625 -0.0039,-0.00208 -0.00719,-0.00416 -0.011719,-0.00586 -0.00226,-8.504e-4 -0.00713,-0.00182 -0.00781,-0.00195 -3.396e-4,-6.69e-5 -0.00754,-0.00194 -0.00781,-0.00195 -2.684e-4,-9.5e-6 -0.00957,0.00191 -0.00977,0.00195 -1.968e-4,4.8e-5 -0.017456,0.00771 -0.017578,0.00781 -1.223e-4,1.065e-4 -0.011671,0.019367 -0.011719,0.019531 -4.81e-5,1.647e-4 -0.00198,0.015402 -0.00195,0.015625 2.59e-5,2.226e-4 0.00381,0.00753 0.00391,0.00781 1.991e-4,5.607e-4 0.00251,0.00752 0.00391,0.00977 0.0014,0.00225 0.00258,0.00413 0.00391,0.00586 0.00531,0.00691 0.011299,0.013297 0.019531,0.021484 0.016465,0.016375 0.041295,0.039272 0.074219,0.068359 0.065848,0.058175 0.16372,0.1415947 0.2910156,0.2480468 0.2545912,0.2129043 0.623157,0.5147765 1.0664063,0.8769532 0.8864844,0.7243518 2.072761,1.6874809 3.2460796,2.648436 C 7.655901,9.760188 7.7981153,9.8795299 7.9887425,10.036083 7.7871523,9.8735134 7.6381392,9.7508172 7.4340551,9.5868641 6.2345803,8.6232537 5.0153407,7.6572165 4.0903051,6.9325673 3.6277872,6.5702426 3.2401408,6.268106 2.9633519,6.0575673 2.8249575,5.9522979 2.7147988,5.8694507 2.6371801,5.8134267 c -0.038809,-0.028012 -0.06942,-0.049826 -0.091797,-0.064453 -0.011189,-0.00731 -0.021427,-0.013304 -0.029297,-0.017578 -0.00394,-0.00214 -0.00722,-0.00412 -0.011719,-0.00586 -0.00225,-8.72e-4 -0.00713,-0.00181 -0.00781,-0.00195 -3.416e-4,-7.13e-5 -0.00754,1.21e-5 -0.00781,0 -2.679e-4,-1.21e-5 -0.011525,-4.74e-5 -0.011719,0 -1.941e-4,4.74e-5 -0.015508,0.00966 -0.015625,0.00977 -1.17e-4,1.079e-4 -0.011678,0.019363 -0.011719,0.019531 -4.04e-5,1.68e-4 -0.00199,0.015397 -0.00195,0.015625 3.61e-5,2.28e-4 0.00379,0.00752 0.00391,0.00781 2.245e-4,5.754e-4 0.0025,0.0076 0.00391,0.00977 0.00141,0.00217 0.00256,0.00415 0.00391,0.00586 0.0054,0.00684 0.010995,0.013082 0.019531,0.021484 0.017072,0.016805 0.043978,0.040269 0.078125,0.070312 0.068294,0.060087 0.1709262,0.1457518 0.3027344,0.2558594 0.2636165,0.2202154 0.6431099,0.5332328 1.1015625,0.9082032 0.9169052,0.7499407 2.1432248,1.7470553 3.3554687,2.7441406 1.212243,0.9970851 2.4113502,1.9945621 3.3066403,2.7480471 0.155348,0.130743 0.239412,0.203525 0.375,0.31836 -0.129997,-0.10488 -0.208101,-0.165876 -0.355487,-0.285166 C 9.7291247,11.833499 8.5054616,10.83738 7.2621801,9.834911 6.018897,8.8324405 4.7561312,7.8245571 3.8031957,7.0673329 3.3267279,6.6887208 2.9281102,6.3723198 2.6469457,6.1513173 2.5063634,6.040816 2.3953295,5.9545898 2.3188207,5.8954579 c -0.038254,-0.029566 -0.069332,-0.052998 -0.089844,-0.068359 -0.010256,-0.00768 -0.017483,-0.013382 -0.023437,-0.017578 -4.763e-4,-3.357e-4 -0.0015,3.144e-4 -0.00195,0 -0.00236,-0.00165 -0.00371,-0.00451 -0.00586,-0.00586 -0.00128,-8.036e-4 -0.00348,-0.00174 -0.00391,-0.00195 -2.152e-4,-1.088e-4 -0.00572,-0.00191 -0.00586,-0.00195 -1.38e-4,-4.71e-5 -0.021424,-0.00197 -0.021484,-0.00195 -6.05e-5,1.47e-5 -0.027362,0.044845 -0.027344,0.044922 1.83e-5,7.73e-5 0.00576,0.013532 0.00586,0.013672 1.938e-4,2.789e-4 0.00276,0.00467 0.00391,0.00586 0.00229,0.00238 0.00525,0.00355 0.00781,0.00586 2.547e-4,2.303e-4 0.00169,-2.376e-4 0.00195,0 7.602e-4,5.018e-4 0.00206,0.00261 0.00391,0.00391 0.00463,0.00408 0.00844,0.00954 0.015625,0.015625 0.018915,0.016014 0.047019,0.03998 0.083984,0.070312 0.07393,0.060666 0.1831068,0.1491069 0.3222656,0.2617188 C 2.8627632,6.4449004 3.2613878,6.7661795 3.7387425,7.1513173 4.693452,7.9215929 5.9624885,8.9471714 7.2153051,9.9716298 7.6139384,10.297602 7.915602,10.550511 8.3012425,10.868114 7.9177723,10.556388 7.6195631,10.31162 7.2231175,9.991161 5.9573771,8.9680259 4.67173,7.9400716 3.6996801,7.1688954 3.2136551,6.7833073 2.8058267,6.4620224 2.5180394,6.2372548 2.3741458,6.124871 2.2609747,6.0375443 2.1821019,5.9774891 c -0.039436,-0.030028 -0.070274,-0.054689 -0.091797,-0.070312 -0.010762,-0.00781 -0.018799,-0.013211 -0.025391,-0.017578 -0.0033,-0.00218 -0.00658,-0.00408 -0.00977,-0.00586 -0.00159,-8.882e-4 -0.00536,-0.00175 -0.00586,-0.00195 -2.52e-4,-1.027e-4 -0.00569,-0.00191 -0.00586,-0.00195 -1.737e-4,-3.99e-5 -0.017483,-2.32e-5 -0.017578,0 -9.48e-5,2.32e-5 -0.029282,0.02921 -0.029297,0.029297 -1.49e-5,8.64e-5 0.00189,0.021335 0.00195,0.021484 6.48e-5,1.496e-4 0.00376,0.0076 0.00391,0.00781 1.442e-4,2.122e-4 0.00319,0.00303 0.00391,0.00391 0.00286,0.00352 0.00322,0.00524 0.00586,0.00781 0.00527,0.00514 0.014025,0.011274 0.023437,0.019531 0.018826,0.016515 0.045017,0.039409 0.082031,0.070312 0.074029,0.061807 0.1840596,0.1531735 0.3242187,0.2675782 0.2803203,0.2288053 0.6837167,0.5543472 1.1660176,0.9453085 0.9646018,0.7819225 2.2481168,1.8226459 3.515625,2.8632812 1.2675069,1.040634 2.5175958,2.081708 3.4511718,2.867188 0.05569,0.04685 0.0814,0.06829 0.134765,0.113281 -0.04673,-0.03797 -0.06874,-0.05436 -0.117187,-0.09375 C 9.6382627,12.227188 8.35976,11.183084 7.0590551,10.133739 5.7583491,9.0843939 4.4356456,8.0306684 3.4340551,7.2392079 2.9332598,6.8434777 2.5131609,6.5126679 2.2153051,6.2821767 2.0663771,6.166931 1.9480714,6.0780395 1.8656957,6.0165517 c -0.041188,-0.030744 -0.074694,-0.054304 -0.097656,-0.070313 -0.011481,-0.008 -0.01991,-0.014979 -0.027344,-0.019531 -0.00372,-0.00228 -0.00588,-0.00399 -0.00977,-0.00586 -0.00194,-9.372e-4 -0.00721,-0.00372 -0.00781,-0.00391 -3.032e-4,-9.48e-5 -0.00759,3.01e-5 -0.00781,0 -2.229e-4,-3.02e-5 -0.01353,-3.47e-5 -0.013672,0 -1.421e-4,3.47e-5 -0.025332,0.017478 -0.025391,0.017578 -5.91e-5,1.001e-4 -0.00393,0.025225 -0.00391,0.025391 2.34e-5,1.653e-4 0.0038,0.011489 0.00391,0.011719 1.056e-4,2.302e-4 0.0011,0.00257 0.00195,0.00391 0.00341,0.00536 0.00505,0.00874 0.00781,0.011719 0.00552,0.00595 0.013934,0.012756 0.023437,0.021484 0.019007,0.017456 0.04629,0.042054 0.083984,0.074219 0.075389,0.064329 0.1882086,0.1567671 0.3320312,0.2753906 0.2876453,0.237247 0.7023595,0.5757267 1.1992188,0.9804688 0.9937185,0.8094841 2.3174586,1.8868657 3.625,2.9628909 1.2629155,1.039301 2.4880571,2.058996 3.4394533,2.859375 C 9.422506,12.371082 8.1856803,11.357716 6.9028051,10.317333 5.5673034,9.2342711 4.2102508,8.146893 3.1860082,7.3290517 2.6738868,6.920131 2.2436138,6.5775917 1.9418675,6.3388173 1.7909944,6.2194301 1.6720776,6.125393 1.5903051,6.0614735 c -0.040886,-0.03196 -0.072076,-0.055694 -0.09375,-0.072266 -0.010837,-0.00829 -0.019353,-0.015107 -0.025391,-0.019531 -4.83e-4,-3.54e-4 -0.0015,3.296e-4 -0.00195,0 -0.00238,-0.00173 -0.00394,-0.00456 -0.00586,-0.00586 -0.00114,-7.719e-4 -0.00206,-8.884e-4 -0.00391,-0.00195 -9.21e-4,-5.323e-4 -0.00378,-0.0019 -0.00391,-0.00195 -1.284e-4,-5.58e-5 -0.023393,-0.00196 -0.023437,-0.00195 -4.48e-5,1.1e-5 -0.02543,0.054609 -0.025391,0.054687 3.97e-5,7.82e-5 0.00574,0.00767 0.00586,0.00781 2.479e-4,2.902e-4 0.00289,0.00293 0.00391,0.00391 0.0017,0.00162 0.00378,0.00208 0.00586,0.00391 4.165e-4,3.645e-4 -4.501e-4,0.00156 0,0.00195 0.0054,0.0047 0.013199,0.011011 0.023437,0.019531 0.020477,0.01704 0.051898,0.041709 0.091797,0.074219 0.079797,0.06502 0.1961102,0.1604197 0.3457031,0.28125 0.2991858,0.2416608 0.7272113,0.5852233 1.2382813,0.9980469 1.0221399,0.8256473 2.377827,1.9256165 3.7070312,3.0175782 1.3292052,1.091962 2.6324819,2.176869 3.5898433,2.984375 0.06572,0.05544 0.09388,0.08008 0.15625,0.132812 -0.115356,-0.09395 -0.182284,-0.146984 -0.308594,-0.25 C 9.2742307,12.479098 7.9647458,11.407074 6.6391332,10.334911 5.3135219,9.2627495 3.9727627,8.1910431 2.9594457,7.3876454 2.4527871,6.9859466 2.0272933,6.6505708 1.7270238,6.4169423 1.5768891,6.300128 1.4581367,6.2077757 1.3754613,6.1454579 1.3341236,6.114299 1.3006384,6.0913549 1.2778051,6.0751454 c -0.011417,-0.0081 -0.020126,-0.01496 -0.027344,-0.019531 -0.00361,-0.00229 -0.00611,-0.00399 -0.00977,-0.00586 -0.00183,-9.355e-4 -0.00724,-0.00175 -0.00781,-0.00195 -2.879e-4,-1.004e-4 -0.00565,-0.00192 -0.00586,-0.00195 -2.066e-4,-3.5e-5 -0.0155,-3.05e-5 -0.015625,0 -1.25e-4,3.06e-5 -0.025346,0.02139 -0.025391,0.021484 -4.44e-5,9.43e-5 -0.00394,0.02328 -0.00391,0.023437 3.59e-5,1.579e-4 0.00379,0.00954 0.00391,0.00977 1.159e-4,2.212e-4 0.00309,0.00468 0.00391,0.00586 0.00325,0.00473 0.00512,0.00696 0.00781,0.00977 0.00538,0.00562 0.012164,0.011079 0.021484,0.019531 0.01864,0.016904 0.047146,0.040993 0.083984,0.072266 0.073676,0.062546 0.1821333,0.1541459 0.3222656,0.2695312 0.2802645,0.2307708 0.6832002,0.5599159 1.1660156,0.953125 0.9656309,0.7864184 2.2521741,1.8316249 3.515625,2.8710934 0.8283743,0.681522 1.5182808,1.259486 2.2421875,1.863281 C 7.7781425,11.534335 7.0168921,10.910617 6.1332738,10.194286 4.8625282,9.1641197 3.5774133,8.1330649 2.6078832,7.3603017 2.1231181,6.97392 1.7160906,6.6517511 1.4301488,6.4267079 1.2871779,6.3141863 1.1740961,6.2251339 1.0961644,6.1649891 1.0571986,6.1349168 1.0273199,6.1122553 1.0063207,6.0966298 0.9958211,6.088817 0.98907947,6.0833499 0.9828832,6.0790517 c -0.003098,-0.00215 -0.006994,-0.00418 -0.009766,-0.00586 -0.001386,-8.413e-4 -0.00345,-0.00369 -0.003906,-0.00391 -2.2817e-4,-1.082e-4 -0.005709,-0.00191 -0.005859,-0.00195 -1.4991e-4,-4.55e-5 -0.021413,-1.74e-5 -0.0214844,0 -7.135e-5,1.74e-5 -0.027351,0.040936 -0.0273438,0.041016 7.21e-6,7.98e-5 0.003821,0.015483 0.003906,0.015625 1.709e-4,2.839e-4 0.004622,0.00645 0.005859,0.00781 0.002475,0.00273 0.005248,0.00348 0.007813,0.00586 2.5525e-4,2.373e-4 0.001689,-2.442e-4 0.001953,0 0.005051,0.00466 0.0106363,0.011888 0.0195313,0.019531 0.0187218,0.016088 0.0453803,0.039974 0.0820313,0.070312 0.073302,0.060681 0.1821175,0.1492533 0.3203125,0.2617222 C 1.6182698,6.7027111 2.0014278,7.0136763 2.4438207,7.3720204 2.0963554,7.09392 1.7619247,6.8254086 1.5453832,6.6532704 1.4117382,6.5470302 1.3076278,6.4648535 1.2367894,6.4091298 c -0.035419,-0.027862 -0.064043,-0.05058 -0.082031,-0.064453 -0.00899,-0.00694 -0.014809,-0.012138 -0.019531,-0.015625 -0.00145,-0.00107 -0.00269,-0.00109 -0.00391,-0.00195 0,0 -0.054752,0.05265 -0.054687,0.052734 1.28e-4,1.691e-4 0.00491,0.00495 0.00586,0.00586 0,0 0.00195,0.00195 0.00195,0.00195 3.058e-4,2.724e-4 0.00163,-2.866e-4 0.00195,0 0,0 0.00195,0.00195 0.00195,0.00195 5.565e-4,3.96e-4 9.988e-4,0.00125 0.00195,0.00195 4.245e-4,3.621e-4 -4.543e-4,0.00157 0,0.00195 0.00545,0.00463 0.013636,0.01144 0.023437,0.019531 0.019604,0.016183 0.047282,0.038513 0.083984,0.068359 0.073404,0.059693 0.1816298,0.1450141 0.3164063,0.2539063 0.2695686,0.217794 0.6513172,0.5278498 1.1074376,0.896494 0.376266,0.3041047 0.9089894,0.7388121 1.3632812,1.1074219 C 3.6075176,8.4352921 3.1476622,8.0621865 2.8324925,7.8095204 2.4002539,7.463002 2.0404511,7.1748882 1.7895238,6.975536 1.6640601,6.8758599 1.5666989,6.7989498 1.5004613,6.7470204 c -0.033119,-0.025965 -0.059427,-0.045807 -0.076172,-0.058594 -0.00494,-0.00378 -0.00819,-0.00518 -0.011719,-0.00781 -0.00144,-0.00125 -0.00295,-0.0011 -0.00391,-0.00195 0,0 -0.00195,-0.00195 -0.00195,-0.00195 -5.608e-4,-4.083e-4 -0.00144,-0.00158 -0.00195,-0.00195 -0.00226,-0.00163 -0.00288,-0.00211 -0.00586,-0.00391 -7.443e-4,-4.496e-4 -0.00377,-0.00189 -0.00391,-0.00195 -1.346e-4,-6.73e-5 -0.0097,-0.0039 -0.00977,-0.00391 -6.38e-5,-1.04e-5 -0.044929,0.042922 -0.044922,0.042969 7.3e-6,4.67e-5 0.00773,0.017474 0.00781,0.017578 1.576e-4,2.081e-4 0.00293,0.00294 0.00391,0.00391 9.791e-4,9.674e-4 0.00297,0.00305 0.00391,0.00391 9.345e-4,8.55e-4 0.0028,9.803e-4 0.00391,0.00195 0.0011,9.728e-4 6.264e-4,0.00276 0.00195,0.00391 0.00531,0.00459 0.012168,0.0098 0.021484,0.017578 0.018632,0.015553 0.045536,0.038125 0.080078,0.066406 0.069084,0.056562 0.1705881,0.1377605 0.296875,0.2402344 0.2525739,0.2049477 0.610628,0.494145 1.0371094,0.8398437 0.8529628,0.6913975 1.9785224,1.6079451 3.0859375,2.5175785 0.3131339,0.257208 0.5436605,0.451922 0.8476563,0.703125 C 6.4539107,10.898966 6.2358183,10.719203 5.9535863,10.491161 4.9020504,9.6415256 3.8500802,8.800308 3.0727269,8.1884267 2.6840503,7.882486 2.3632895,7.6353265 2.1469457,7.4716298 2.0387738,7.3897814 1.9576221,7.3283755 1.9047582,7.2919423 c -0.026432,-0.018217 -0.045681,-0.029764 -0.060547,-0.037109 -0.00372,-0.00184 -0.00615,-0.0043 -0.011719,-0.00586 -0.00139,-3.904e-4 -0.00554,5.52e-5 -0.00586,0 -3.2e-4,-5.52e-5 -0.0056,2.4e-6 -0.00586,0 -2.552e-4,-2.3e-6 -0.011529,-5.07e-5 -0.011719,0 -1.903e-4,5.07e-5 -0.013547,0.00771 -0.013672,0.00781 -1.249e-4,1.04e-4 -0.011659,0.015468 -0.011719,0.015625 -5.93e-5,1.574e-4 -0.00391,0.015414 -0.00391,0.015625 1.29e-5,4.222e-4 0.00363,0.014987 0.00391,0.015625 2.779e-4,6.381e-4 0.00264,0.00582 0.00391,0.00781 0.00127,0.002 0.00263,0.00417 0.00391,0.00586 0.01961,0.025899 0.060999,0.062399 0.1289063,0.1230469 0.067907,0.060647 0.1609456,0.1407625 0.2753906,0.2382812 0.22889,0.1950374 0.5421853,0.4580703 0.9121094,0.765625 0.7398481,0.6151095 1.7003712,1.4082787 2.6367187,2.1875 0.9363524,0.779225 1.8497769,1.544237 2.5136719,2.109375 0.094472,0.08042 0.1389036,0.119662 0.2226563,0.191406 C 8.3720803,12.84549 8.2971322,12.786896 8.1723363,12.686474 7.5255969,12.166046 6.6827324,11.483098 5.8461644,10.80952 5.011246,10.137272 4.1795596,9.473748 3.5688207,8.9931141 3.2634512,8.7527972 3.0142915,8.5590484 2.8461644,8.4325673 c -0.084064,-0.063241 -0.146894,-0.1095364 -0.1875,-0.1367188 -0.020303,-0.013591 -0.034084,-0.023357 -0.048828,-0.029297 -0.00184,-7.426e-4 -0.0034,-0.00126 -0.00586,-0.00195 -0.00246,-6.934e-4 -0.00927,-0.00192 -0.00977,-0.00195 -2.474e-4,-1.46e-5 -0.00762,0.00193 -0.00781,0.00195 -1.963e-4,2.75e-5 -0.011574,0.00188 -0.011719,0.00195 -1.45e-4,6.97e-5 -0.013578,0.011607 -0.013672,0.011719 -9.34e-5,1.122e-4 -0.00777,0.013517 -0.00781,0.013672 -4.17e-5,1.547e-4 -1.03e-5,0.011521 0,0.011719 1.02e-5,1.975e-4 -6.24e-5,0.00953 0,0.00977 1.248e-4,4.808e-4 0.00272,0.0055 0.00391,0.00781 0.00237,0.00462 0.00552,0.00869 0.00781,0.011719 0.017191,0.022705 0.050157,0.052487 0.1035157,0.1015625 0.053359,0.049076 0.1244158,0.1142013 0.2128906,0.1914063 0.1769496,0.1544098 0.418458,0.3609952 0.703125,0.6015624 0.3714581,0.313913 0.8649959,0.7237145 1.3320312,1.1132813 C 4.5431771,10.037929 4.1306776,9.7037959 3.8422582,9.4716298 3.5912435,9.269573 3.3852718,9.1054116 3.2446019,8.9950673 3.174267,8.9398951 3.1196275,8.897938 3.0844457,8.8720204 c -0.017591,-0.012959 -0.029315,-0.021404 -0.039063,-0.027344 -0.00244,-0.00149 -0.0049,-0.00249 -0.00781,-0.00391 -0.00145,-7.1e-4 -0.00543,-0.00375 -0.00586,-0.00391 -4.268e-4,-1.524e-4 -0.0095,-0.00194 -0.00977,-0.00195 -2.617e-4,-1.53e-5 -0.033108,0.015502 -0.033203,0.015625 -9.53e-5,1.228e-4 -0.00593,0.032941 -0.00586,0.033203 7.24e-5,2.621e-4 0.00366,0.00936 0.00391,0.00977 2.414e-4,4.023e-4 9.77e-4,0.00457 0.00195,0.00586 0.00741,0.00978 0.016265,0.01699 0.029297,0.029297 0.013032,0.012307 0.029388,0.027834 0.050781,0.046875 0.042787,0.038083 0.1022839,0.089351 0.1757812,0.1523438 0.1469948,0.1259856 0.3508043,0.2975237 0.5917969,0.5 0.4819852,0.4049528 1.1128059,0.9326058 1.734375,1.4531248 0.6215691,0.520519 1.2344816,1.034431 1.6796875,1.416015 0.1039873,0.08913 0.160434,0.139932 0.2441406,0.212891 C 7.4002396,12.637283 7.3229706,12.579933 7.2074925,12.489208 6.7856786,12.157811 6.2405279,11.721138 5.7035863,11.288036 5.1666447,10.854935 4.6378861,10.424367 4.2465551,10.108349 4.0508895,9.9503395 3.8902765,9.8211768 3.7797582,9.7333485 3.724499,9.6894344 3.6809875,9.655221 3.6528051,9.6337391 c -0.014091,-0.010741 -0.023678,-0.018279 -0.03125,-0.023437 -0.00189,-0.00129 -0.004,-0.00277 -0.00586,-0.00391 -0.00186,-0.00114 -0.00725,-0.00367 -0.00781,-0.00391 -2.807e-4,-1.171e-4 -0.011566,-0.00194 -0.011719,-0.00195 -1.531e-4,-1.14e-5 -0.039038,0.027249 -0.039063,0.027344 -2.46e-5,9.52e-5 0.00185,0.027141 0.00195,0.027344 1.049e-4,2.027e-4 0.00291,0.0065 0.00391,0.00781 0.00766,0.010114 0.011679,0.012497 0.021484,0.021484 0.00981,0.00899 0.02444,0.02068 0.041016,0.035156 0.033151,0.028952 0.07855,0.067851 0.1367188,0.1171874 0.1163371,0.098672 0.2791731,0.2349485 0.4726562,0.3964845 0.068768,0.05741 0.1741639,0.143862 0.25,0.207031 -0.034729,-0.02723 -0.088247,-0.0701 -0.1210938,-0.0957 -0.1839705,-0.143401 -0.338006,-0.260397 -0.4453142,-0.337887 -0.053654,-0.038745 -0.094927,-0.067761 -0.125,-0.085937 -0.015036,-0.00909 -0.026696,-0.015081 -0.039063,-0.019531 -0.00309,-0.00111 -0.00569,-0.00118 -0.00977,-0.00195 -0.00204,-3.868e-4 -0.00727,-0.00193 -0.00781,-0.00195 -5.451e-4,-2.72e-5 -0.00934,-7.18e-5 -0.00977,0 -4.289e-4,7.19e-5 -0.011407,0.00569 -0.011719,0.00586 -3.118e-4,1.717e-4 -0.013478,0.011446 -0.013672,0.011719 -1.937e-4,2.724e-4 -0.00774,0.015251 -0.00781,0.015625 -7.46e-5,3.738e-4 -4.54e-5,0.011243 0,0.011719 4.53e-5,4.76e-4 0.0013,0.0055 0.00195,0.00781 6.504e-4,0.00231 0.00121,0.00406 0.00195,0.00586 0.00149,0.0036 0.00225,0.00698 0.00391,0.00977 0.00332,0.00558 0.00734,0.010082 0.011719,0.015625 0.00875,0.011086 0.020611,0.023877 0.035156,0.039063 0.029091,0.03037 0.070884,0.07069 0.1230469,0.119141 0.1043249,0.0969 0.2509773,0.22884 0.4277343,0.382812 0.3399671,0.296143 0.792164,0.678054 1.2421875,1.058594 C 5.1157253,11.235589 4.6888252,10.891134 4.3696019,10.635692 4.1979283,10.498319 4.0561243,10.385125 3.9555394,10.307567 c -0.050292,-0.03878 -0.09138,-0.06814 -0.1191406,-0.08789 -0.01388,-0.0099 -0.024297,-0.01816 -0.033203,-0.02344 -0.00445,-0.0026 -0.00709,-0.0035 -0.013672,-0.0059 -0.00165,-5.95e-4 -0.00551,-0.0019 -0.00586,-0.002 -3.451e-4,-7.3e-5 -0.011483,-0.002 -0.011719,-0.0019 -2.361e-4,1.8e-5 -0.023311,0.0097 -0.023437,0.0098 -1.261e-4,1.11e-4 -0.013657,0.02714 -0.013672,0.02734 -1.53e-5,2.04e-4 0.00186,0.01338 0.00195,0.01367 9.3e-5,2.92e-4 0.00296,0.006 0.00391,0.0078 0.00189,0.0036 0.00431,0.0057 0.00586,0.0078 0.00311,0.0041 0.00594,0.0076 0.00977,0.01172 0.00765,0.0082 0.018023,0.01877 0.03125,0.03125 0.026454,0.02496 0.064683,0.05875 0.1132812,0.101562 0.097197,0.08563 0.2359808,0.204197 0.4023438,0.345703 0.164065,0.139552 0.3970241,0.333711 0.6015625,0.50586 C 4.7114808,11.092132 4.4882337,10.911381 4.3324925,10.786083 4.1678109,10.653592 4.0304826,10.54487 3.9340551,10.469677 c -0.048214,-0.0376 -0.086775,-0.06662 -0.1132813,-0.08594 -0.013253,-0.0097 -0.022991,-0.01825 -0.03125,-0.02344 -0.00413,-0.0026 -0.00617,-0.0035 -0.011719,-0.0059 -0.00139,-5.96e-4 -0.00553,-0.0019 -0.00586,-0.002 -3.291e-4,-9.9e-5 -0.00954,-0.0019 -0.00977,-0.002 -2.244e-4,-1.1e-5 -0.023319,0.0058 -0.023438,0.0059 -1.188e-4,7.7e-5 -0.017566,0.02913 -0.017578,0.0293 -1.25e-5,1.67e-4 0.00186,0.01537 0.00195,0.01563 9.15e-5,2.51e-4 0.00371,0.0075 0.00391,0.0078 3.89e-4,6.7e-4 0.00438,0.006 0.00586,0.0078 0.00296,0.0037 0.00612,0.006 0.00977,0.0098 0.00729,0.0075 0.016619,0.01754 0.029297,0.0293 0.025356,0.02351 0.060801,0.05495 0.1074218,0.0957 0.093242,0.08151 0.2272782,0.196555 0.3867188,0.332031 0.3188812,0.270954 0.7433143,0.627663 1.1660156,0.984375 C 5.7832594,12.16437 6.1045022,12.4371 6.3910864,12.682486 6.0979927,12.449666 5.7697,12.187546 5.4184301,11.905224 5.0001246,11.569024 4.5824708,11.235415 4.2699925,10.989208 4.1137534,10.866104 3.9848264,10.764499 3.8930394,10.696239 c -0.045893,-0.03413 -0.081507,-0.05926 -0.1074219,-0.07617 -0.012958,-0.0085 -0.023465,-0.01493 -0.033203,-0.01953 -0.00243,-0.0012 -0.00495,-0.0029 -0.00781,-0.0039 -0.00286,-10e-4 -0.010881,-0.0018 -0.011719,-0.002 -4.187e-4,-5.3e-5 -0.00945,-3.1e-5 -0.00977,0 -3.205e-4,3e-5 -0.01345,0.0038 -0.013672,0.0039 -2.216e-4,1.15e-4 -0.015503,0.01347 -0.015625,0.01367 -1.219e-4,1.99e-4 -0.00584,0.01729 -0.00586,0.01758 -2.13e-5,2.85e-4 0.00188,0.01136 0.00195,0.01172 7.48e-5,3.62e-4 0.00119,0.0059 0.00195,0.0078 0.00152,0.0039 0.00241,0.0054 0.00391,0.0078 0.00299,0.0049 0.00619,0.0093 0.00977,0.01367 0.00715,0.0087 0.015495,0.01924 0.027344,0.03125 0.023698,0.02403 0.058425,0.05627 0.1015625,0.0957 0.086274,0.07886 0.2098141,0.186746 0.3574218,0.314453 0.023912,0.02069 0.06274,0.05255 0.087891,0.07422 -0.02226,-0.01771 -0.056839,-0.04563 -0.078125,-0.0625 -0.1486454,-0.117831 -0.2738966,-0.215783 -0.3613281,-0.28125 -0.043716,-0.03273 -0.076874,-0.05595 -0.1015626,-0.07227 -0.012344,-0.0082 -0.022001,-0.01502 -0.03125,-0.01953 -0.00231,-0.0011 -0.0051,-0.0029 -0.00781,-0.0039 -0.00271,-10e-4 -0.00897,-0.0018 -0.00977,-0.002 -3.983e-4,-6.1e-5 -0.00946,-1.8e-5 -0.00977,0 -3.047e-4,1.9e-5 -0.015415,0.0038 -0.015625,0.0039 -2.104e-4,9.8e-5 -0.01551,0.01349 -0.015625,0.01367 -1.153e-4,1.79e-4 -0.00584,0.01732 -0.00586,0.01758 -1.94e-5,2.6e-4 -7.28e-5,0.01138 0,0.01172 7.29e-5,3.35e-4 0.00313,0.0059 0.00391,0.0078 0.00155,0.0039 0.00244,0.0074 0.00391,0.0098 0.00293,0.0047 0.00632,0.0076 0.00977,0.01172 0.00689,0.0083 0.015967,0.01785 0.027344,0.0293 0.022753,0.0229 0.054339,0.05404 0.095703,0.0918 0.082728,0.07551 0.2005945,0.178096 0.3417969,0.300781 0.2824048,0.245371 0.6580618,0.566904 1.03125,0.886719 0.3731882,0.319815 0.7441496,0.638577 1.015625,0.878906 0.058556,0.05184 0.090322,0.08124 0.1386719,0.125 C 6.2537509,13.090448 6.2099354,13.059988 6.141091,13.006695 5.8586067,12.788128 5.4898119,12.49352 5.1235082,12.200146 4.7572045,11.906771 4.3941638,11.613324 4.1215551,11.397411 3.9852507,11.289455 3.8714334,11.201875 3.7914769,11.141552 c -0.039978,-0.03016 -0.071221,-0.05316 -0.09375,-0.06836 -0.011265,-0.0076 -0.020926,-0.01326 -0.029297,-0.01758 -0.00209,-0.0011 -0.00342,-0.0029 -0.00586,-0.0039 -0.00244,-10e-4 -0.00904,-0.0018 -0.00977,-0.002 -3.626e-4,-7.5e-5 -0.00754,-0.002 -0.00781,-0.002 -2.769e-4,-3e-6 -0.013481,0.0019 -0.013672,0.002 -1.908e-4,7.1e-5 -0.017474,0.01353 -0.017578,0.01367 -1.038e-4,1.44e-4 -0.0078,0.02127 -0.00781,0.02148 -1.64e-5,2.19e-4 -6.95e-5,0.01143 0,0.01172 6.94e-5,2.88e-4 0.00375,0.0075 0.00391,0.0078 3.089e-4,7.14e-4 0.00249,0.0057 0.00391,0.0078 0.00283,0.0043 0.0046,0.008 0.00781,0.01172 0.00643,0.0075 0.014819,0.01491 0.025391,0.02539 0.021143,0.02095 0.051434,0.04916 0.089844,0.08399 0.07682,0.06965 0.187347,0.165567 0.3183594,0.279297 0.2620247,0.227458 0.6095913,0.526781 0.9550781,0.824218 0.3454869,0.297437 0.6878916,0.594197 0.9375,0.81836 0.075131,0.06747 0.1200201,0.111786 0.1757813,0.164062 -0.065189,-0.04744 -0.124064,-0.09137 -0.2089844,-0.15625 C 5.656453,12.965863 5.3212478,12.700074 4.9887425,12.43452 4.6562373,12.168967 4.3274191,11.903776 4.0805394,11.707958 3.9570996,11.610049 3.8540908,11.530378 3.7817113,11.475536 c -0.03619,-0.02742 -0.065497,-0.04859 -0.085937,-0.0625 -0.01022,-0.007 -0.017678,-0.01156 -0.025391,-0.01563 -0.00193,-10e-4 -0.00358,-0.0029 -0.00586,-0.0039 -0.00227,-9.68e-4 -0.00911,-0.0018 -0.00977,-0.002 -3.276e-4,-7.5e-5 -0.00756,-0.0019 -0.00781,-0.002 -2.502e-4,-9e-6 -0.0135,0.0019 -0.013672,0.002 -1.722e-4,5.7e-5 -0.017485,0.01355 -0.017578,0.01367 -9.36e-5,1.24e-4 -0.0078,0.02129 -0.00781,0.02148 -1.43e-5,1.92e-4 -6.31e-5,0.01146 0,0.01172 6.31e-5,2.54e-4 0.00181,0.0075 0.00195,0.0078 2.798e-4,6.34e-4 0.00451,0.0058 0.00586,0.0078 0.0027,0.0041 0.00486,0.0063 0.00781,0.0098 0.00591,0.0068 0.013846,0.01398 0.023437,0.02344 0.019183,0.01892 0.045286,0.04474 0.080078,0.07617 0.00428,0.0039 0.013072,0.01158 0.017578,0.01563 -0.013955,-0.01066 -0.031172,-0.0241 -0.041016,-0.03125 -0.00958,-0.007 -0.016951,-0.01358 -0.023437,-0.01758 -0.00324,-0.002 -0.00624,-0.0037 -0.011719,-0.0059 -0.00137,-5.51e-4 -0.00562,-0.0019 -0.00586,-0.002 -2.354e-4,-6.2e-5 -0.0096,-10e-7 -0.00977,0 -1.608e-4,1e-6 -0.023352,0.0077 -0.023438,0.0078 -8.54e-5,6.4e-5 -0.015615,0.02721 -0.015625,0.02734 -9.6e-6,1.29e-4 0.00189,0.01544 0.00195,0.01563 6.41e-5,1.89e-4 0.00377,0.0056 0.00391,0.0059 2.745e-4,4.97e-4 0.00264,0.0062 0.00391,0.0078 0.00253,0.0033 0.00507,0.0049 0.00781,0.0078 0.00548,0.0058 0.012398,0.01294 0.021484,0.02148 0.014584,0.01372 0.038179,0.03502 0.0625,0.05664 -0.013947,-0.01061 -0.031224,-0.0242 -0.041016,-0.03125 -0.00927,-0.0067 -0.01699,-0.01173 -0.023437,-0.01563 -0.00322,-0.0019 -0.010525,-0.0054 -0.011719,-0.0059 -2.986e-4,-1.12e-4 -0.00563,-0.0019 -0.00586,-0.002 -2.272e-4,-5.2e-5 -0.011563,-0.002 -0.011719,-0.002 -1.554e-4,9e-6 -0.021402,0.0097 -0.021484,0.0098 -8.29e-5,7e-5 -0.013662,0.02721 -0.013672,0.02734 -9.8e-6,1.32e-4 0.00189,0.01348 0.00195,0.01367 6.23e-5,1.91e-4 0.00182,0.0076 0.00195,0.0078 2.676e-4,4.98e-4 0.0046,0.0042 0.00586,0.0059 0.00253,0.0033 0.00511,0.0069 0.00781,0.0098 0.00541,0.0058 0.010631,0.01111 0.019531,0.01953 0.0178,0.01685 0.043774,0.0416 0.076172,0.07031 0.064796,0.05743 0.1569224,0.135522 0.2675781,0.230468 0.2213113,0.189894 0.5171645,0.440029 0.8105469,0.689454 0.042805,0.03639 0.074671,0.06343 0.1171874,0.09961 -0.034388,-0.02766 -0.061226,-0.04845 -0.095703,-0.07617 -0.2866518,-0.230458 -0.5725958,-0.458281 -0.7871093,-0.625 -0.1072568,-0.08336 -0.1962173,-0.152055 -0.2597657,-0.197266 -0.031774,-0.0226 -0.057084,-0.03779 -0.076172,-0.04883 -0.00954,-0.0055 -0.017328,-0.01048 -0.027344,-0.01367 -0.0025,-7.97e-4 -0.00426,-0.0014 -0.00781,-0.002 -0.00177,-2.67e-4 -0.0055,7e-6 -0.00586,0 -3.601e-4,-7e-6 -0.00947,-5.1e-5 -0.00977,0 -2.934e-4,5.1e-5 -0.00954,0.0038 -0.00977,0.0039 -2.263e-4,1.1e-4 -0.01156,0.0076 -0.011719,0.0078 -1.585e-4,1.68e-4 -0.00772,0.01149 -0.00781,0.01172 -9.03e-5,2.27e-4 -0.00193,0.01339 -0.00195,0.01367 -2.15e-5,2.86e-4 -4.4e-5,0.0075 0,0.0078 4.4e-5,3.39e-4 -5.14e-4,0.004 0,0.0059 0.00103,0.0037 0.00272,0.0073 0.00391,0.0098 0.00236,0.0049 0.0051,0.0079 0.00781,0.01172 0.00542,0.0077 0.011246,0.01619 0.019531,0.02539 0.01657,0.0184 0.040869,0.042 0.070312,0.07031 0.048451,0.0466 0.1217278,0.112191 0.1992187,0.181641 -0.056999,-0.04604 -0.1180865,-0.09686 -0.15625,-0.126954 -0.029085,-0.02294 -0.052166,-0.04076 -0.068359,-0.05273 -0.0081,-0.006 -0.015981,-0.01014 -0.021484,-0.01367 -0.00275,-0.0018 -0.00316,-0.0038 -0.00781,-0.0059 -0.00116,-5.24e-4 -0.00566,-0.0019 -0.00586,-0.002 -1.979e-4,-6.5e-5 -0.00768,-0.0019 -0.00781,-0.002 -1.348e-4,-1.1e-5 -0.023366,0.0058 -0.023437,0.0059 -7.13e-5,4.3e-5 -0.017571,0.0292 -0.017578,0.0293 -7.3e-6,9.7e-5 0.0019,0.01548 0.00195,0.01563 5.4e-5,1.47e-4 0.00184,0.0076 0.00195,0.0078 2.295e-4,3.94e-4 0.00276,0.0044 0.00391,0.0059 0.00229,0.0029 0.00548,0.0054 0.00781,0.0078 0.00466,0.0048 0.010002,0.01051 0.017578,0.01758 0.015152,0.01413 0.036921,0.03239 0.064453,0.05664 0.055065,0.0485 0.1325705,0.11675 0.2265624,0.197266 0.1617528,0.138561 0.3782594,0.322249 0.5917969,0.503906 -0.2207784,-0.176265 -0.4431718,-0.351665 -0.609375,-0.478516 -0.094585,-0.07219 -0.1739742,-0.13164 -0.2304687,-0.169922 -0.028247,-0.01914 -0.050346,-0.0319 -0.068359,-0.04101 -0.00901,-0.0046 -0.01557,-0.0097 -0.027344,-0.01172 -0.00294,-5.13e-4 -0.009,-2.9e-5 -0.00977,0 -7.606e-4,2.9e-5 -0.017051,0.0037 -0.017578,0.0039 -5.271e-4,2.35e-4 -0.017288,0.01323 -0.017578,0.01367 -2.898e-4,4.43e-4 -0.00581,0.01888 -0.00586,0.01953 -4.87e-5,6.55e-4 0.00121,0.01019 0.00195,0.01367 7.444e-4,0.0035 9.453e-4,0.0072 0.00195,0.0098 0.00202,0.0051 0.00341,0.0078 0.00586,0.01172 0.00491,0.0079 0.012217,0.01659 0.019531,0.02539 0.014628,0.0176 0.034979,0.03869 0.060547,0.06445 0.051135,0.05153 0.1223784,0.119851 0.2089843,0.199219 0.1732118,0.158737 0.4035646,0.362491 0.6308594,0.564453 0.2272948,0.201962 0.4518399,0.401435 0.6132813,0.552735 0.04121,0.03862 0.063784,0.06237 0.095703,0.09375 C 5.114255,13.67367 5.080261,13.65133 5.029728,13.61399 4.8591643,13.488151 4.6393181,13.317206 4.4223363,13.147411 4.2053545,12.977616 3.9894279,12.808706 3.8285863,12.686474 3.7481655,12.625357 3.6812729,12.574588 3.6332738,12.541942 c -0.023999,-0.01632 -0.041039,-0.02714 -0.056641,-0.03516 -0.0078,-0.004 -0.014457,-0.0077 -0.025391,-0.0098 -0.00273,-5.17e-4 -0.00912,-1.2e-5 -0.00977,0 -6.424e-4,1.3e-5 -0.01518,0.0018 -0.015625,0.002 -4.448e-4,1.85e-4 -0.017334,0.01526 -0.017578,0.01563 -2.441e-4,3.62e-4 -0.00777,0.01899 -0.00781,0.01953 -4.03e-5,5.41e-4 0.0018,0.01103 0.00195,0.01172 1.513e-4,6.92e-4 9.987e-4,0.0074 0.00195,0.0098 0.00191,0.0047 0.00367,0.0082 0.00586,0.01172 0.00439,0.007 0.00935,0.01202 0.015625,0.01953 0.012558,0.01502 0.031043,0.03487 0.052734,0.05664 0.043382,0.04354 0.1042856,0.100989 0.1777344,0.167969 0.1468975,0.133958 0.3410266,0.30453 0.5351562,0.474609 0.045013,0.03944 0.078797,0.06867 0.1230469,0.107422 -0.039051,-0.03102 -0.070009,-0.05471 -0.109375,-0.08594 -0.1896636,-0.150438 -0.3775568,-0.299448 -0.5195313,-0.40625 -0.070987,-0.0534 -0.1309126,-0.09506 -0.1738281,-0.123047 -0.021458,-0.01399 -0.037696,-0.02447 -0.052734,-0.03125 -0.00752,-0.0034 -0.014925,-0.007 -0.027344,-0.0078 -0.0031,-1.98e-4 -0.00919,0.0018 -0.00977,0.002 -5.75e-4,1.05e-4 -0.015224,0.0056 -0.015625,0.0059 -4.005e-4,2.61e-4 -0.013449,0.01326 -0.013672,0.01367 -2.232e-4,4.18e-4 -0.00582,0.017 -0.00586,0.01758 -4.31e-5,5.78e-4 0.00139,0.0086 0.00195,0.01172 5.599e-4,0.0032 0.00113,0.0055 0.00195,0.0078 0.00164,0.0047 0.00386,0.0082 0.00586,0.01172 0.004,0.0071 0.00803,0.01233 0.013672,0.01953 0.011284,0.0144 0.025744,0.03278 0.044922,0.05273 0.038356,0.03991 0.093503,0.09031 0.1582031,0.150391 0.1294013,0.120155 0.3017934,0.27288 0.4726563,0.423828 0.00876,0.0077 0.014685,0.01376 0.023437,0.02148 -0.1645193,-0.131943 -0.3283995,-0.261641 -0.4511719,-0.357422 -0.061386,-0.04789 -0.1137336,-0.08704 -0.1503906,-0.113281 -0.018328,-0.01312 -0.031173,-0.02436 -0.042969,-0.03125 -0.0059,-0.0034 -0.011472,-0.0052 -0.019531,-0.0078 -0.00201,-6.55e-4 -0.00733,-0.0019 -0.00781,-0.002 -4.863e-4,-7.6e-5 -0.011384,-5.5e-5 -0.011719,0 -1.673e-4,2.8e-5 -0.01159,0.0038 -0.011719,0.0039 -1.29e-4,6.1e-5 -0.011628,0.0077 -0.011719,0.0078 -9.04e-5,9.5e-5 -0.00776,0.01159 -0.00781,0.01172 -5.14e-5,1.29e-4 -0.00194,0.01156 -0.00195,0.01172 -2.44e-5,3.26e-4 0.00183,0.01518 0.00195,0.01563 1.274e-4,4.48e-4 9.689e-4,0.0058 0.00195,0.0078 0.00197,0.004 0.00398,0.0052 0.00586,0.0078 0.00376,0.0053 0.00864,0.01003 0.013672,0.01563 0.010057,0.01119 0.023852,0.02631 0.041016,0.04297 0.034327,0.03332 0.08095,0.07648 0.1386719,0.128907 0.1154433,0.104856 0.2684151,0.241358 0.4179687,0.376953 0.1495537,0.135595 0.2966618,0.272249 0.3984376,0.375 0.03238,0.03269 0.050485,0.05341 0.072266,0.07813 -0.032001,-0.01852 -0.066425,-0.03754 -0.109375,-0.06641 -0.1106386,-0.07436 -0.250161,-0.176904 -0.3867188,-0.277344 -0.1365578,-0.10044 -0.2699053,-0.199558 -0.3710937,-0.267578 -0.050594,-0.03401 -0.092271,-0.06021 -0.125,-0.07617 -0.016364,-0.008 -0.029888,-0.01363 -0.046875,-0.01563 -0.00425,-4.98e-4 -0.00827,-6.52e-4 -0.013672,0 -0.0027,3.26e-4 -0.00669,0.001 -0.00977,0.002 -0.00307,9.37e-4 -0.00922,0.0036 -0.00977,0.0039 -0.00109,6.26e-4 -0.015014,0.0165 -0.015625,0.01758 -3.058e-4,5.39e-4 -0.00372,0.0091 -0.00391,0.0098 -1.828e-4,6.54e-4 -0.00173,0.0068 -0.00195,0.0098 -0.0015,0.02003 0.00457,0.03153 0.011719,0.04492 0.00715,0.01339 0.017709,0.02776 0.029297,0.04297 0.023175,0.03041 0.053831,0.06728 0.091797,0.107422 0.075931,0.08028 0.1760332,0.176949 0.2734375,0.271485 0.097404,0.09453 0.1935525,0.186631 0.2578125,0.255859 0.00918,0.0099 0.011694,0.01454 0.019531,0.02344 -0.01741,-0.01026 -0.031994,-0.01774 -0.052734,-0.03125 -0.078203,-0.05094 -0.1757593,-0.121533 -0.2714844,-0.191406 -0.095725,-0.06987 -0.1888951,-0.139564 -0.2597656,-0.1875 -0.035435,-0.02397 -0.066212,-0.04285 -0.089844,-0.05469 -0.011816,-0.0059 -0.021023,-0.0097 -0.035156,-0.01172 -0.00353,-5.1e-4 -0.00688,-0.0024 -0.011719,-0.002 -0.00242,2.07e-4 -0.00735,0.0018 -0.00781,0.002 -4.602e-4,1.21e-4 -0.00939,0.0037 -0.00977,0.0039 -7.569e-4,3.96e-4 -0.015203,0.01492 -0.015625,0.01563 -4.222e-4,7.1e-4 -0.00578,0.0185 -0.00586,0.01953 -0.00144,0.01935 0.00403,0.0289 0.00977,0.03906 0.00574,0.01016 0.012724,0.02017 0.021484,0.03125 0.017521,0.02215 0.041974,0.04704 0.070312,0.07617 0.045946,0.04724 0.1064427,0.10434 0.1660156,0.160156 -0.051178,-0.03569 -0.1035767,-0.07296 -0.1445312,-0.0957 -0.028476,-0.01582 -0.05197,-0.0282 -0.076172,-0.0332 -0.012101,-0.0025 -0.02454,-0.0054 -0.041016,0.002 -0.016476,0.0074 -0.030092,0.02937 -0.03125,0.04492 -0.00196,0.02636 0.00744,0.04625 0.019531,0.06836 0.012093,0.02211 0.029871,0.04568 0.048828,0.07031 0.037914,0.04926 0.085419,0.104155 0.1308594,0.15625 0.045441,0.05209 0.088593,0.101411 0.1113282,0.136718 0.00632,0.0098 0.0069,0.0131 0.00977,0.01953 -0.012905,4.78e-4 -0.026107,-3.98e-4 -0.048828,-0.0078 -0.030843,-0.01007 -0.065891,-0.02524 -0.099609,-0.04101 -0.033718,-0.01578 -0.063718,-0.03207 -0.09375,-0.03906 -0.015016,-0.0035 -0.031384,-0.0061 -0.050781,0.002 -0.019397,0.0081 -0.033736,0.03175 -0.035156,0.05078 -0.0042,0.05621 0.024783,0.102791 0.050781,0.136719 0.025998,0.03393 0.052734,0.05664 0.052734,0.05664 l 0.048828,-0.05664 c 0,0 -0.020411,-0.01803 -0.041016,-0.04492 -0.01497,-0.01954 -0.020248,-0.04179 -0.025391,-0.0625 0.016819,0.0059 0.036371,0.01316 0.0625,0.02539 0.033577,0.01572 0.069869,0.03267 0.1074219,0.04492 0.037552,0.01225 0.076753,0.02117 0.1152343,0.0078 0.012855,-0.0045 0.026083,-0.01357 0.033203,-0.02734 0.00712,-0.01378 0.00771,-0.02928 0.00586,-0.04102 -0.00371,-0.02348 -0.015365,-0.04282 -0.029297,-0.06445 -0.027865,-0.04327 -0.071379,-0.09201 -0.1171876,-0.144531 -0.045809,-0.05252 -0.093674,-0.106568 -0.1289062,-0.152344 -0.014877,-0.01933 -0.026229,-" style="opacity:1"/>
    </g>
</svg>
