<?xml version='1.0' encoding='UTF-8'?>
<!-- Created with Inkscape (http://www.inkscape.org/) and export_objects.py -->
<svg xmlns:cc="http://creativecommons.org/ns#" xmlns:dc="http://purl.org/dc/elements/1.1/" xmlns:inkscape="http://www.inkscape.org/namespaces/inkscape" xmlns:rdf="http://www.w3.org/1999/02/22-rdf-syntax-ns#" xmlns:sodipodi="http://sodipodi.sourceforge.net/DTD/sodipodi-0.dtd" xmlns:xlink="http://www.w3.org/1999/xlink" xmlns="http://www.w3.org/2000/svg" version="1.1" id="svg1" width="16" height="16" viewBox="0 0 16 16">
<sodipodi:namedview 
    objecttolerance="10" 
    gridtolerance="10" 
    guidetolerance="10" 
    id="namedview" 
    showgrid="true" 
    inkscape:zoom="27.166187"
    inkscape:cx="7.4837792"
    inkscape:cy="8.9906751"
    inkscape:window-x="0" 
    inkscape:window-y="27"> 
    <inkscape:grid type="xygrid" id="grid"/>
  </sodipodi:namedview>
  <metadata
     id="metadata1906">
    <rdf:RDF>
      <cc:Work
         rdf:about="">
        <dc:format>image/svg+xml</dc:format>
        <dc:type
           rdf:resource="http://purl.org/dc/dcmitype/StillImage" />
        <cc:license
           rdf:resource="http://creativecommons.org/publicdomain/zero/1.0/" />
        <dc:title>LiveEffect Icons proposal</dc:title>
        <dc:date>13 Jan 2019</dc:date>
        <dc:creator>
          <cc:Agent>
            <dc:title>Ramón Miranda</dc:title>
          </cc:Agent>
        </dc:creator>
        <dc:rights>
          <cc:Agent>
            <dc:title>see the license tab</dc:title>
          </cc:Agent>
        </dc:rights>
        <dc:subject>
          <rdf:Bag>
            <rdf:li>icon ui</rdf:li>
          </rdf:Bag>
        </dc:subject>
        <dc:description>This is a contribution with Inkscape Project from
Ramon Miranda www.ramonmiranda.com (design and SVG file)
Jabiertxo (SVG stuff to integrate them in UI)</dc:description>
        <dc:publisher>
          <cc:Agent>
            <dc:title></dc:title>
          </cc:Agent>
        </dc:publisher>
        <dc:identifier></dc:identifier>
        <dc:source />
        <dc:relation />
        <dc:language>-</dc:language>
        <dc:coverage />
        <dc:contributor>
          <cc:Agent>
            <dc:title>Ramon Miranda
Jabier Arraiza</dc:title>
          </cc:Agent>
        </dc:contributor>
      </cc:Work>
      <cc:License
         rdf:about="http://creativecommons.org/publicdomain/zero/1.0/">
        <cc:permits
           rdf:resource="http://creativecommons.org/ns#Reproduction" />
        <cc:permits
           rdf:resource="http://creativecommons.org/ns#Distribution" />
        <cc:permits
           rdf:resource="http://creativecommons.org/ns#DerivativeWorks" />
      </cc:License>
    </rdf:RDF>
  </metadata>
  <g inkscape:groupmode="layer"
     id="layercompo"
     inkscape:label="offset">
        <path 
            id="rect22048" 
            d="M 0,0 H 16 V 16 H 0 Z" 
            style="opacity:0;fill:none" />
        <path inkscape:connector-curvature="0" d="M 7.9317871,0.50438379 7.4707592,1.2241517 7.8079054,1.4405525 7.9396277,1.2351285 8.0776224,1.4389843 8.4100642,1.2147429 8.1027123,0.75685145 Z M 8.7189841,1.6710664 8.3849742,1.8953078 8.6938942,2.3531994 9.026336,2.1273898 Z M 7.1728161,1.6883157 6.8764411,2.1509116 7.2135873,2.3673124 7.5115304,1.9047165 Z M 9.3336879,2.5852813 9.0012461,2.8095227 9.3085979,3.2658461 9.6410394,3.0416047 Z M 6.578498,2.6135072 6.2821229,3.0776713 6.6208372,3.294072 6.9172123,2.829908 Z M 9.9483913,3.4979279 9.6159495,3.7237374 9.9233013,4.1800609 10.257311,3.9558195 Z m -3.9626434,0.04234 -0.2979431,0.4625958 0.3387143,0.2164008 0.296375,-0.4625959 z m 4.5789151,0.8718756 -0.332442,0.2242414 0.349691,0.5206164 0.606863,0.1583803 0.101928,-0.387326 L 10.829676,4.805742 Z M 5.3914298,4.4670273 5.1342579,4.8653303 4.6779344,4.9954844 4.7877029,5.3812423 5.3914298,5.2103171 5.728576,4.6834282 Z M 11.823865,5.067618 11.721937,5.4565122 12.255098,5.596075 12.357026,5.208749 Z M 4.1479093,5.1460239 3.6194523,5.2965636 3.7292208,5.6823215 4.2576778,5.5317818 Z M 12.890187,5.3483116 12.78826,5.7372057 13.321421,5.8767686 13.423348,5.4878744 Z M 3.0894271,5.4471032 2.559402,5.5976429 2.6691704,5.9849689 3.1991956,5.8344293 Z M 13.95651,5.6290053 13.854582,6.0163314 14.387743,6.1574624 14.489672,5.7685682 Z M 2.0293768,5.7497507 1.5009198,5.9002904 1.6106883,6.2860483 2.1391453,6.1355086 Z m 12.9934562,0.1599486 -0.101928,0.3873261 0.238355,0.062725 -0.15054,0.192879 0.315192,0.2477633 0.528457,-0.6727242 z M 0.9708946,6.0508303 0.14763069,6.2844805 0.68863275,6.947796 1.000689,6.6937602 0.84544492,6.5040175 1.0806632,6.4365882 Z M 14.668438,6.9854309 14.328155,7.4182325 14.643348,7.6659957 14.98363,7.2331941 Z M 1.348812,7.1202893 1.0383239,7.3743251 1.388015,7.8008542 1.6985031,7.5468184 Z M 13.987873,7.8510341 13.64759,8.2854039 13.964351,8.5331671 14.304633,8.0987974 Z M 2.0466262,7.9733475 1.7361381,8.2273833 2.0858292,8.6554806 2.3963173,8.4014448 Z m 11.2622498,0.744858 -0.340283,0.4328016 0.315193,0.2477632 0.340282,-0.4328017 z M 2.7444403,8.8279739 2.4339522,9.0820097 2.7836434,9.5085388 3.0941315,9.254503 Z m 9.8838707,0.7558344 -0.387326,0.4923907 0.03763,0.627249 0.399871,-0.02352 -0.02666,-0.475141 0.291671,-0.3732134 z m -9.1844884,0.097224 -0.3120562,0.2540364 0.3010794,0.3685083 -0.017249,0.475141 0.4014392,0.01411 0.023522,-0.627248 z m 9.2660314,1.5508727 -0.399871,0.02352 0.03136,0.550411 0.401439,-0.02352 z m -9.3130751,0.09879 -0.020386,0.55041 0.4014392,0.01568 0.020386,-0.551979 z m 9.3773681,1.003598 -0.399872,0.02352 0.03136,0.55041 0.399871,-0.02352 z m -9.4181392,0.09879 -0.018817,0.551979 0.4014392,0.01412 0.018817,-0.551979 z M 8.072918,13.174805 7.4880086,13.40375 7.635412,13.776964 8.0760542,13.60447 8.522969,13.767555 8.6609637,13.391205 Z m 4.765521,0.261876 -0.401439,0.02352 0.03293,0.55041 0.399871,-0.02352 z m -9.5216342,0.09879 -0.020386,0.551979 0.4014392,0.01412 0.020386,-0.550411 z m 5.861639,0.04704 -0.1379947,0.376349 0.5174802,0.189743 0.1379941,-0.37635 z m -2.203211,0.02195 -0.5127759,0.200719 0.1458353,0.374781 0.5127759,-0.202287 z m 3.2397392,0.357531 -0.139563,0.376349 0.51748,0.191312 0.139563,-0.37635 z m -4.2652908,0.04391 -0.5127758,0.20072 0.1458353,0.374781 0.5127758,-0.20072 z m 5.3002508,0.337147 -0.137995,0.376349 0.517481,0.189742 0.137994,-0.376349 z m -6.3258025,0.06429 -0.5127758,0.202288 0.1458354,0.373213 0.5127757,-0.20072 z m 7.9770345,0.131722 -0.399871,0.02352 0.01412,0.246196 -0.230514,-0.08468 -0.137995,0.376349 0.804447,0.294807 z m -9.6235622,0.10036 -0.031363,0.856195 0.798174,-0.312057 -0.1474034,-0.373213 -0.2273777,0.08938 0.00941,-0.246195 z M 7.9552775,2.5348273 10.066152,5.6750435 13.726426,6.6337632 11.392199,9.6117054 11.61149,13.389094 8.0579836,12.089347 4.5332378,13.465181 4.6712771,9.6839516 2.2735742,6.7568755 5.9123937,5.7196945 Z" style="opacity:1"/>
    </g>
</svg>
